,Clump_Thickness,Cell_Size_Uniformity,Cell_Shape_Uniformity,Marginal_Adhesion,Single_Epi_Cell_Size,Bare_Nuclei,Bland_Chromatin,Normal_Nucleoli,Mitoses
0,5.0,1.0,1.0,1.0,2.0,1.0,3.0,1.0,1.0
1,5.0,4.0,4.0,5.0,7.0,10.0,3.0,2.0,1.0
2,3.0,1.0,1.0,1.0,2.0,2.0,3.0,1.0,1.0
3,6.0,8.0,8.0,1.0,3.0,4.0,3.0,7.0,1.0
4,4.0,1.0,1.0,3.0,2.0,1.0,3.0,1.0,1.0
5,8.0,10.0,10.0,8.0,7.0,10.0,9.0,7.0,1.0
6,1.0,1.0,1.0,1.0,2.0,10.0,3.0,1.0,1.0
7,2.0,1.0,2.0,1.0,2.0,1.0,3.0,1.0,1.0
8,2.0,1.0,1.0,1.0,2.0,1.0,1.0,1.0,5.0
9,4.0,2.0,1.0,1.0,2.0,1.0,2.0,1.0,1.0
10,1.0,1.0,1.0,1.0,1.0,1.0,3.0,1.0,1.0
11,2.0,1.0,1.0,1.0,2.0,1.0,2.0,1.0,1.0
12,5.0,3.0,3.0,3.0,2.0,3.0,4.0,4.0,1.0
13,1.0,1.0,1.0,1.0,2.0,3.0,3.0,1.0,1.0
14,8.0,7.0,5.0,10.0,7.0,9.0,5.0,5.0,4.0
15,7.0,4.0,6.0,4.0,6.0,1.0,4.0,3.0,1.0
16,4.0,1.0,1.0,1.0,2.0,1.0,2.0,1.0,1.0
17,4.0,1.0,1.0,1.0,2.0,1.0,3.0,1.0,1.0
18,10.0,7.0,7.0,6.0,4.0,10.0,4.0,1.0,2.0
19,6.0,1.0,1.0,1.0,2.0,1.0,3.0,1.0,1.0
20,7.0,3.0,2.0,10.0,5.0,10.0,5.0,4.0,4.0
21,10.0,5.0,5.0,3.0,6.0,7.0,7.0,10.0,1.0
22,3.0,1.0,1.0,1.0,2.0,1.0,2.0,1.0,1.0
23,8.0,4.0,5.0,1.0,2.0,,7.0,3.0,1.0
24,1.0,1.0,1.0,1.0,2.0,1.0,3.0,1.0,1.0
25,5.0,2.0,3.0,4.0,2.0,7.0,3.0,6.0,1.0
26,3.0,2.0,1.0,1.0,1.0,1.0,2.0,1.0,1.0
27,5.0,1.0,1.0,1.0,2.0,1.0,2.0,1.0,1.0
28,2.0,1.0,1.0,1.0,2.0,1.0,2.0,1.0,1.0
29,1.0,1.0,3.0,1.0,2.0,1.0,1.0,1.0,1.0
30,3.0,1.0,1.0,1.0,1.0,1.0,2.0,1.0,1.0
31,2.0,1.0,1.0,1.0,2.0,1.0,3.0,1.0,1.0
32,10.0,7.0,7.0,3.0,8.0,5.0,7.0,4.0,3.0
33,2.0,1.0,1.0,2.0,2.0,1.0,3.0,1.0,1.0
34,3.0,1.0,2.0,1.0,2.0,1.0,2.0,1.0,1.0
35,2.0,1.0,1.0,1.0,2.0,1.0,2.0,1.0,1.0
36,10.0,10.0,10.0,8.0,6.0,1.0,8.0,9.0,1.0
37,6.0,2.0,1.0,1.0,1.0,1.0,7.0,1.0,1.0
38,5.0,4.0,4.0,9.0,2.0,10.0,5.0,6.0,1.0
39,2.0,5.0,3.0,3.0,6.0,7.0,7.0,5.0,1.0
40,6.0,6.0,6.0,9.0,6.0,,7.0,8.0,1.0
41,10.0,4.0,3.0,1.0,3.0,3.0,6.0,5.0,2.0
42,6.0,10.0,10.0,2.0,8.0,10.0,7.0,3.0,3.0
43,5.0,6.0,5.0,6.0,10.0,1.0,3.0,1.0,1.0
44,10.0,10.0,10.0,4.0,8.0,1.0,8.0,10.0,1.0
45,1.0,1.0,1.0,1.0,2.0,1.0,2.0,1.0,2.0
46,3.0,7.0,7.0,4.0,4.0,9.0,4.0,8.0,1.0
47,1.0,1.0,1.0,1.0,2.0,1.0,2.0,1.0,1.0
48,4.0,1.0,1.0,3.0,2.0,1.0,3.0,1.0,1.0
49,7.0,8.0,7.0,2.0,4.0,8.0,3.0,8.0,2.0
50,9.0,5.0,8.0,1.0,2.0,3.0,2.0,1.0,5.0
51,5.0,3.0,3.0,4.0,2.0,4.0,3.0,4.0,1.0
52,10.0,3.0,6.0,2.0,3.0,5.0,4.0,10.0,2.0
53,5.0,5.0,5.0,8.0,10.0,8.0,7.0,3.0,7.0
54,10.0,5.0,5.0,6.0,8.0,8.0,7.0,1.0,1.0
55,10.0,6.0,6.0,3.0,4.0,5.0,3.0,6.0,1.0
56,8.0,10.0,10.0,1.0,3.0,6.0,3.0,9.0,1.0
57,8.0,2.0,4.0,1.0,5.0,1.0,5.0,4.0,4.0
58,5.0,2.0,3.0,1.0,6.0,10.0,5.0,1.0,1.0
59,9.0,5.0,5.0,2.0,2.0,2.0,5.0,1.0,1.0
60,5.0,3.0,5.0,5.0,3.0,3.0,4.0,10.0,1.0
61,1.0,1.0,1.0,1.0,2.0,2.0,2.0,1.0,1.0
62,9.0,10.0,10.0,1.0,10.0,8.0,3.0,3.0,1.0
63,6.0,3.0,4.0,1.0,5.0,2.0,3.0,9.0,1.0
64,1.0,1.0,1.0,1.0,2.0,1.0,2.0,1.0,1.0
65,10.0,4.0,2.0,1.0,3.0,2.0,4.0,3.0,10.0
66,4.0,1.0,1.0,1.0,2.0,1.0,3.0,1.0,1.0
67,5.0,3.0,4.0,1.0,8.0,10.0,4.0,9.0,1.0
68,8.0,3.0,8.0,3.0,4.0,9.0,8.0,9.0,8.0
69,1.0,1.0,1.0,1.0,2.0,1.0,3.0,2.0,1.0
70,5.0,1.0,3.0,1.0,2.0,1.0,2.0,1.0,1.0
71,6.0,10.0,2.0,8.0,10.0,2.0,7.0,8.0,10.0
72,1.0,3.0,3.0,2.0,2.0,1.0,7.0,2.0,1.0
73,9.0,4.0,5.0,10.0,6.0,10.0,4.0,8.0,1.0
74,10.0,6.0,4.0,1.0,3.0,4.0,3.0,2.0,3.0
75,1.0,1.0,2.0,1.0,2.0,2.0,4.0,2.0,1.0
76,1.0,1.0,4.0,1.0,2.0,1.0,2.0,1.0,1.0
77,5.0,3.0,1.0,2.0,2.0,1.0,2.0,1.0,1.0
78,3.0,1.0,1.0,1.0,2.0,3.0,3.0,1.0,1.0
79,2.0,1.0,1.0,1.0,3.0,1.0,2.0,1.0,1.0
80,2.0,2.0,2.0,1.0,1.0,1.0,7.0,1.0,1.0
81,4.0,1.0,1.0,2.0,2.0,1.0,2.0,1.0,1.0
82,5.0,2.0,1.0,1.0,2.0,1.0,3.0,1.0,1.0
83,3.0,1.0,1.0,1.0,2.0,2.0,7.0,1.0,1.0
84,3.0,5.0,7.0,8.0,8.0,9.0,7.0,10.0,7.0
85,5.0,10.0,6.0,1.0,10.0,4.0,4.0,10.0,10.0
86,3.0,3.0,6.0,4.0,5.0,8.0,4.0,4.0,1.0
87,3.0,6.0,6.0,6.0,5.0,10.0,6.0,8.0,3.0
88,4.0,1.0,1.0,1.0,2.0,1.0,3.0,1.0,1.0
89,2.0,1.0,1.0,2.0,3.0,1.0,2.0,1.0,1.0
90,1.0,1.0,1.0,1.0,2.0,1.0,3.0,1.0,1.0
91,3.0,1.0,1.0,2.0,2.0,1.0,1.0,1.0,1.0
92,4.0,1.0,1.0,1.0,2.0,1.0,3.0,1.0,1.0
93,1.0,1.0,1.0,1.0,2.0,1.0,2.0,1.0,1.0
94,2.0,1.0,1.0,1.0,2.0,1.0,3.0,1.0,1.0
95,1.0,1.0,1.0,1.0,2.0,1.0,3.0,1.0,1.0
96,2.0,1.0,1.0,2.0,2.0,1.0,1.0,1.0,1.0
97,5.0,1.0,1.0,1.0,2.0,1.0,3.0,1.0,1.0
98,9.0,6.0,9.0,2.0,10.0,6.0,2.0,9.0,10.0
99,7.0,5.0,6.0,10.0,5.0,10.0,7.0,9.0,4.0
100,10.0,3.0,5.0,1.0,10.0,5.0,3.0,10.0,2.0
101,2.0,3.0,4.0,4.0,2.0,5.0,2.0,5.0,1.0
102,4.0,1.0,2.0,1.0,2.0,1.0,3.0,1.0,1.0
103,8.0,2.0,3.0,1.0,6.0,3.0,7.0,1.0,1.0
104,10.0,10.0,10.0,10.0,10.0,1.0,8.0,8.0,8.0
105,7.0,3.0,4.0,4.0,3.0,3.0,3.0,2.0,7.0
106,10.0,10.0,10.0,8.0,2.0,10.0,4.0,1.0,1.0
107,1.0,6.0,8.0,10.0,8.0,10.0,5.0,7.0,1.0
108,1.0,1.0,1.0,1.0,2.0,1.0,2.0,3.0,1.0
109,6.0,5.0,4.0,4.0,3.0,9.0,7.0,8.0,3.0
110,1.0,3.0,1.0,2.0,2.0,2.0,5.0,3.0,2.0
111,8.0,6.0,4.0,3.0,5.0,9.0,3.0,1.0,1.0
112,10.0,3.0,3.0,10.0,2.0,10.0,7.0,3.0,3.0
113,10.0,10.0,10.0,3.0,10.0,8.0,8.0,1.0,1.0
114,3.0,3.0,2.0,1.0,2.0,3.0,3.0,1.0,1.0
115,1.0,1.0,1.0,1.0,2.0,5.0,1.0,1.0,1.0
116,8.0,3.0,3.0,1.0,2.0,2.0,3.0,2.0,1.0
117,4.0,5.0,5.0,10.0,4.0,10.0,7.0,5.0,8.0
118,1.0,1.0,1.0,1.0,4.0,3.0,1.0,1.0,1.0
119,3.0,2.0,1.0,1.0,2.0,2.0,3.0,1.0,1.0
120,1.0,1.0,2.0,2.0,2.0,1.0,3.0,1.0,1.0
121,4.0,2.0,1.0,1.0,2.0,2.0,3.0,1.0,1.0
122,10.0,10.0,10.0,2.0,10.0,10.0,5.0,3.0,3.0
123,5.0,3.0,5.0,1.0,8.0,10.0,5.0,3.0,1.0
124,5.0,4.0,6.0,7.0,9.0,7.0,8.0,10.0,1.0
125,1.0,1.0,1.0,1.0,2.0,1.0,2.0,1.0,1.0
126,7.0,5.0,3.0,7.0,4.0,10.0,7.0,5.0,5.0
127,3.0,1.0,1.0,1.0,2.0,1.0,3.0,1.0,1.0
128,8.0,3.0,5.0,4.0,5.0,10.0,1.0,6.0,2.0
129,1.0,1.0,1.0,1.0,10.0,1.0,1.0,1.0,1.0
130,5.0,1.0,3.0,1.0,2.0,1.0,2.0,1.0,1.0
131,2.0,1.0,1.0,1.0,2.0,1.0,3.0,1.0,1.0
132,5.0,10.0,8.0,10.0,8.0,10.0,3.0,6.0,3.0
133,3.0,1.0,1.0,1.0,2.0,1.0,2.0,2.0,1.0
134,3.0,1.0,1.0,1.0,3.0,1.0,2.0,1.0,1.0
135,5.0,1.0,1.0,1.0,2.0,2.0,3.0,3.0,1.0
136,4.0,1.0,1.0,1.0,2.0,1.0,2.0,1.0,1.0
137,3.0,1.0,1.0,1.0,2.0,1.0,1.0,1.0,1.0
138,4.0,1.0,2.0,1.0,2.0,1.0,2.0,1.0,1.0
139,1.0,1.0,1.0,1.0,1.0,,2.0,1.0,1.0
140,3.0,1.0,1.0,1.0,2.0,1.0,1.0,1.0,1.0
141,2.0,1.0,1.0,1.0,2.0,1.0,1.0,1.0,1.0
142,9.0,5.0,5.0,4.0,4.0,5.0,4.0,3.0,3.0
143,1.0,1.0,1.0,1.0,2.0,5.0,1.0,1.0,1.0
144,2.0,1.0,1.0,1.0,2.0,1.0,2.0,1.0,1.0
145,1.0,1.0,3.0,1.0,2.0,,2.0,1.0,1.0
146,3.0,4.0,5.0,2.0,6.0,8.0,4.0,1.0,1.0
147,1.0,1.0,1.0,1.0,3.0,2.0,2.0,1.0,1.0
148,3.0,1.0,1.0,3.0,8.0,1.0,5.0,8.0,1.0
149,8.0,8.0,7.0,4.0,10.0,10.0,7.0,8.0,7.0
150,1.0,1.0,1.0,1.0,1.0,1.0,3.0,1.0,1.0
151,7.0,2.0,4.0,1.0,6.0,10.0,5.0,4.0,3.0
152,10.0,10.0,8.0,6.0,4.0,5.0,8.0,10.0,1.0
153,4.0,1.0,1.0,1.0,2.0,3.0,1.0,1.0,1.0
154,1.0,1.0,1.0,1.0,2.0,1.0,1.0,1.0,1.0
155,5.0,5.0,5.0,6.0,3.0,10.0,3.0,1.0,1.0
156,1.0,2.0,2.0,1.0,2.0,1.0,2.0,1.0,1.0
157,2.0,1.0,1.0,1.0,2.0,1.0,3.0,1.0,1.0
158,1.0,1.0,2.0,1.0,3.0,,1.0,1.0,1.0
159,9.0,9.0,10.0,3.0,6.0,10.0,7.0,10.0,6.0
160,10.0,7.0,7.0,4.0,5.0,10.0,5.0,7.0,2.0
161,4.0,1.0,1.0,1.0,2.0,1.0,3.0,2.0,1.0
162,3.0,1.0,1.0,1.0,2.0,1.0,3.0,1.0,1.0
163,1.0,1.0,1.0,2.0,1.0,3.0,1.0,1.0,7.0
164,5.0,1.0,1.0,1.0,2.0,,3.0,1.0,1.0
165,4.0,1.0,1.0,1.0,2.0,2.0,3.0,2.0,1.0
166,5.0,6.0,7.0,8.0,8.0,10.0,3.0,10.0,3.0
167,10.0,8.0,10.0,10.0,6.0,1.0,3.0,1.0,10.0
168,3.0,1.0,1.0,1.0,2.0,1.0,3.0,1.0,1.0
169,1.0,1.0,1.0,2.0,1.0,1.0,1.0,1.0,1.0
170,3.0,1.0,1.0,1.0,2.0,1.0,1.0,1.0,1.0
171,1.0,1.0,1.0,1.0,2.0,1.0,3.0,1.0,1.0
172,1.0,1.0,1.0,1.0,2.0,1.0,2.0,1.0,1.0
173,6.0,10.0,10.0,10.0,8.0,10.0,10.0,10.0,7.0
174,8.0,6.0,5.0,4.0,3.0,10.0,6.0,1.0,1.0
175,5.0,8.0,7.0,7.0,10.0,10.0,5.0,7.0,1.0
176,2.0,1.0,1.0,1.0,2.0,1.0,3.0,1.0,1.0
177,5.0,10.0,10.0,3.0,8.0,1.0,5.0,10.0,3.0
178,4.0,1.0,1.0,1.0,2.0,1.0,3.0,1.0,1.0
179,5.0,3.0,3.0,3.0,6.0,10.0,3.0,1.0,1.0
180,1.0,1.0,1.0,1.0,1.0,1.0,3.0,1.0,1.0
181,1.0,1.0,1.0,1.0,2.0,1.0,1.0,1.0,1.0
182,6.0,1.0,1.0,1.0,2.0,1.0,3.0,1.0,1.0
183,5.0,8.0,8.0,8.0,5.0,10.0,7.0,8.0,1.0
184,8.0,7.0,6.0,4.0,4.0,10.0,5.0,1.0,1.0
185,2.0,1.0,1.0,1.0,1.0,1.0,3.0,1.0,1.0
186,1.0,5.0,8.0,6.0,5.0,8.0,7.0,10.0,1.0
187,10.0,5.0,6.0,10.0,6.0,10.0,7.0,7.0,10.0
188,5.0,8.0,4.0,10.0,5.0,8.0,9.0,10.0,1.0
189,1.0,2.0,3.0,1.0,2.0,1.0,3.0,1.0,1.0
190,10.0,10.0,10.0,8.0,6.0,8.0,7.0,10.0,1.0
191,7.0,5.0,10.0,10.0,10.0,10.0,4.0,10.0,3.0
192,5.0,1.0,1.0,1.0,2.0,1.0,2.0,1.0,1.0
193,1.0,1.0,1.0,1.0,2.0,1.0,3.0,1.0,1.0
194,3.0,1.0,1.0,1.0,2.0,1.0,3.0,1.0,1.0
195,4.0,1.0,1.0,1.0,2.0,1.0,3.0,1.0,1.0
196,8.0,4.0,4.0,5.0,4.0,7.0,7.0,8.0,2.0
197,5.0,1.0,1.0,4.0,2.0,1.0,3.0,1.0,1.0
198,1.0,1.0,1.0,1.0,2.0,1.0,1.0,1.0,1.0
199,3.0,1.0,1.0,1.0,2.0,1.0,2.0,1.0,1.0
200,9.0,7.0,7.0,5.0,5.0,10.0,7.0,8.0,3.0
201,10.0,8.0,8.0,4.0,10.0,10.0,8.0,1.0,1.0
202,1.0,1.0,1.0,1.0,2.0,1.0,3.0,1.0,1.0
203,5.0,1.0,1.0,1.0,2.0,1.0,3.0,1.0,1.0
204,1.0,1.0,1.0,1.0,2.0,1.0,3.0,1.0,1.0
205,5.0,10.0,10.0,9.0,6.0,10.0,7.0,10.0,5.0
206,10.0,10.0,9.0,3.0,7.0,5.0,3.0,5.0,1.0
207,1.0,1.0,1.0,1.0,1.0,1.0,3.0,1.0,1.0
208,1.0,1.0,1.0,1.0,1.0,1.0,3.0,1.0,1.0
209,5.0,1.0,1.0,1.0,1.0,1.0,3.0,1.0,1.0
210,8.0,10.0,10.0,10.0,5.0,10.0,8.0,10.0,6.0
211,8.0,10.0,8.0,8.0,4.0,8.0,7.0,7.0,1.0
212,1.0,1.0,1.0,1.0,2.0,1.0,3.0,1.0,1.0
213,10.0,10.0,10.0,10.0,7.0,10.0,7.0,10.0,4.0
214,10.0,10.0,10.0,10.0,3.0,10.0,10.0,6.0,1.0
215,8.0,7.0,8.0,7.0,5.0,5.0,5.0,10.0,2.0
216,1.0,1.0,1.0,1.0,2.0,1.0,2.0,1.0,1.0
217,1.0,1.0,1.0,1.0,2.0,1.0,3.0,1.0,1.0
218,6.0,10.0,7.0,7.0,6.0,4.0,8.0,10.0,2.0
219,6.0,1.0,3.0,1.0,2.0,1.0,3.0,1.0,1.0
220,1.0,1.0,1.0,2.0,2.0,1.0,3.0,1.0,1.0
221,10.0,6.0,4.0,3.0,10.0,10.0,9.0,10.0,1.0
222,4.0,1.0,1.0,3.0,1.0,5.0,2.0,1.0,1.0
223,7.0,5.0,6.0,3.0,3.0,8.0,7.0,4.0,1.0
224,10.0,5.0,5.0,6.0,3.0,10.0,7.0,9.0,2.0
225,1.0,1.0,1.0,1.0,2.0,1.0,2.0,1.0,1.0
226,10.0,5.0,7.0,4.0,4.0,10.0,8.0,9.0,1.0
227,8.0,9.0,9.0,5.0,3.0,5.0,7.0,7.0,1.0
228,1.0,1.0,1.0,1.0,1.0,1.0,3.0,1.0,1.0
229,10.0,10.0,10.0,3.0,10.0,10.0,9.0,10.0,1.0
230,7.0,4.0,7.0,4.0,3.0,7.0,7.0,6.0,1.0
231,6.0,8.0,7.0,5.0,6.0,8.0,8.0,9.0,2.0
232,8.0,4.0,6.0,3.0,3.0,1.0,4.0,3.0,1.0
233,10.0,4.0,5.0,5.0,5.0,10.0,4.0,1.0,1.0
234,3.0,3.0,2.0,1.0,3.0,1.0,3.0,6.0,1.0
235,3.0,1.0,4.0,1.0,2.0,,3.0,1.0,1.0
236,10.0,8.0,8.0,2.0,8.0,10.0,4.0,8.0,10.0
237,9.0,8.0,8.0,5.0,6.0,2.0,4.0,10.0,4.0
238,8.0,10.0,10.0,8.0,6.0,9.0,3.0,10.0,10.0
239,10.0,4.0,3.0,2.0,3.0,10.0,5.0,3.0,2.0
240,5.0,1.0,3.0,3.0,2.0,2.0,2.0,3.0,1.0
241,3.0,1.0,1.0,3.0,1.0,1.0,3.0,1.0,1.0
242,2.0,1.0,1.0,1.0,2.0,1.0,3.0,1.0,1.0
243,1.0,1.0,1.0,1.0,2.0,5.0,5.0,1.0,1.0
244,1.0,1.0,1.0,1.0,2.0,1.0,3.0,1.0,1.0
245,5.0,1.0,1.0,2.0,2.0,2.0,3.0,1.0,1.0
246,8.0,10.0,10.0,8.0,5.0,10.0,7.0,8.0,1.0
247,8.0,4.0,4.0,1.0,2.0,9.0,3.0,3.0,1.0
248,4.0,1.0,1.0,1.0,2.0,1.0,3.0,6.0,1.0
249,3.0,1.0,1.0,1.0,2.0,,3.0,1.0,1.0
250,1.0,2.0,2.0,1.0,2.0,1.0,1.0,1.0,1.0
251,10.0,4.0,4.0,10.0,2.0,10.0,5.0,3.0,3.0
252,6.0,3.0,3.0,5.0,3.0,10.0,3.0,5.0,3.0
253,6.0,10.0,10.0,2.0,8.0,10.0,7.0,3.0,3.0
254,9.0,10.0,10.0,1.0,10.0,8.0,3.0,3.0,1.0
255,5.0,6.0,6.0,2.0,4.0,10.0,3.0,6.0,1.0
256,3.0,1.0,1.0,1.0,2.0,1.0,1.0,1.0,1.0
257,3.0,1.0,1.0,1.0,2.0,1.0,2.0,1.0,1.0
258,3.0,1.0,1.0,1.0,2.0,1.0,3.0,1.0,1.0
259,5.0,7.0,7.0,1.0,5.0,8.0,3.0,4.0,1.0
260,10.0,5.0,8.0,10.0,3.0,10.0,5.0,1.0,3.0
261,5.0,10.0,10.0,6.0,10.0,10.0,10.0,6.0,5.0
262,8.0,8.0,9.0,4.0,5.0,10.0,7.0,8.0,1.0
263,10.0,4.0,4.0,10.0,6.0,10.0,5.0,5.0,1.0
264,7.0,9.0,4.0,10.0,10.0,3.0,5.0,3.0,3.0
265,5.0,1.0,4.0,1.0,2.0,1.0,3.0,2.0,1.0
266,10.0,10.0,6.0,3.0,3.0,10.0,4.0,3.0,2.0
267,3.0,3.0,5.0,2.0,3.0,10.0,7.0,1.0,1.0
268,10.0,8.0,8.0,2.0,3.0,4.0,8.0,7.0,8.0
269,1.0,1.0,1.0,1.0,2.0,1.0,3.0,1.0,1.0
270,8.0,4.0,7.0,1.0,3.0,10.0,3.0,9.0,2.0
271,5.0,1.0,1.0,1.0,2.0,1.0,3.0,1.0,1.0
272,3.0,3.0,5.0,2.0,3.0,10.0,7.0,1.0,1.0
273,7.0,2.0,4.0,1.0,3.0,4.0,3.0,3.0,1.0
274,3.0,1.0,1.0,1.0,2.0,1.0,3.0,2.0,1.0
275,3.0,1.0,3.0,1.0,2.0,,2.0,1.0,1.0
276,3.0,1.0,1.0,1.0,2.0,1.0,2.0,1.0,1.0
277,1.0,1.0,1.0,1.0,2.0,1.0,2.0,1.0,1.0
278,1.0,1.0,1.0,1.0,2.0,1.0,3.0,1.0,1.0
279,10.0,5.0,7.0,3.0,3.0,7.0,3.0,3.0,8.0
280,3.0,1.0,1.0,1.0,2.0,1.0,3.0,1.0,1.0
281,2.0,1.0,1.0,2.0,2.0,1.0,3.0,1.0,1.0
282,1.0,4.0,3.0,10.0,4.0,10.0,5.0,6.0,1.0
283,10.0,4.0,6.0,1.0,2.0,10.0,5.0,3.0,1.0
284,7.0,4.0,5.0,10.0,2.0,10.0,3.0,8.0,2.0
285,8.0,10.0,10.0,10.0,8.0,10.0,10.0,7.0,3.0
286,10.0,10.0,10.0,10.0,10.0,10.0,4.0,10.0,10.0
287,3.0,1.0,1.0,1.0,3.0,1.0,2.0,1.0,1.0
288,6.0,1.0,3.0,1.0,4.0,5.0,5.0,10.0,1.0
289,5.0,6.0,6.0,8.0,6.0,10.0,4.0,10.0,4.0
290,1.0,1.0,1.0,1.0,2.0,1.0,1.0,1.0,1.0
291,1.0,1.0,1.0,1.0,2.0,1.0,3.0,1.0,1.0
292,8.0,8.0,8.0,1.0,2.0,,6.0,10.0,1.0
293,10.0,4.0,4.0,6.0,2.0,10.0,2.0,3.0,1.0
294,1.0,1.0,1.0,1.0,2.0,,2.0,1.0,1.0
295,5.0,5.0,7.0,8.0,6.0,10.0,7.0,4.0,1.0
296,5.0,3.0,4.0,3.0,4.0,5.0,4.0,7.0,1.0
297,5.0,4.0,3.0,1.0,2.0,,2.0,3.0,1.0
298,8.0,2.0,1.0,1.0,5.0,1.0,1.0,1.0,1.0
299,9.0,1.0,2.0,6.0,4.0,10.0,7.0,7.0,2.0
300,8.0,4.0,10.0,5.0,4.0,4.0,7.0,10.0,1.0
301,1.0,1.0,1.0,1.0,2.0,1.0,3.0,1.0,1.0
302,10.0,10.0,10.0,7.0,9.0,10.0,7.0,10.0,10.0
303,1.0,1.0,1.0,1.0,2.0,1.0,3.0,1.0,1.0
304,8.0,3.0,4.0,9.0,3.0,10.0,3.0,3.0,1.0
305,10.0,8.0,4.0,4.0,4.0,10.0,3.0,10.0,4.0
306,1.0,1.0,1.0,1.0,2.0,1.0,3.0,1.0,1.0
307,1.0,1.0,1.0,1.0,2.0,1.0,3.0,1.0,1.0
308,7.0,8.0,7.0,6.0,4.0,3.0,8.0,8.0,4.0
309,3.0,1.0,1.0,1.0,2.0,5.0,5.0,1.0,1.0
310,2.0,1.0,1.0,1.0,3.0,1.0,2.0,1.0,1.0
311,1.0,1.0,1.0,1.0,2.0,1.0,1.0,1.0,1.0
312,8.0,6.0,4.0,10.0,10.0,1.0,3.0,5.0,1.0
313,1.0,1.0,1.0,1.0,2.0,1.0,1.0,1.0,1.0
314,1.0,1.0,1.0,1.0,1.0,1.0,2.0,1.0,1.0
315,4.0,6.0,5.0,6.0,7.0,,4.0,9.0,1.0
316,5.0,5.0,5.0,2.0,5.0,10.0,4.0,3.0,1.0
317,6.0,8.0,7.0,8.0,6.0,8.0,8.0,9.0,1.0
318,1.0,1.0,1.0,1.0,5.0,1.0,3.0,1.0,1.0
319,4.0,4.0,4.0,4.0,6.0,5.0,7.0,3.0,1.0
320,7.0,6.0,3.0,2.0,5.0,10.0,7.0,4.0,6.0
321,3.0,1.0,1.0,1.0,2.0,,3.0,1.0,1.0
322,3.0,1.0,1.0,1.0,2.0,1.0,3.0,1.0,1.0
323,5.0,4.0,6.0,10.0,2.0,10.0,4.0,1.0,1.0
324,1.0,1.0,1.0,1.0,2.0,1.0,3.0,1.0,1.0
325,3.0,2.0,2.0,1.0,2.0,1.0,2.0,3.0,1.0
326,10.0,1.0,1.0,1.0,2.0,10.0,5.0,4.0,1.0
327,1.0,1.0,1.0,1.0,2.0,1.0,2.0,1.0,1.0
328,8.0,10.0,3.0,2.0,6.0,4.0,3.0,10.0,1.0
329,10.0,4.0,6.0,4.0,5.0,10.0,7.0,1.0,1.0
330,10.0,4.0,7.0,2.0,2.0,8.0,6.0,1.0,1.0
331,5.0,1.0,1.0,1.0,2.0,1.0,3.0,1.0,2.0
332,5.0,2.0,2.0,2.0,2.0,1.0,2.0,2.0,1.0
333,5.0,4.0,6.0,6.0,4.0,10.0,4.0,3.0,1.0
334,8.0,6.0,7.0,3.0,3.0,10.0,3.0,4.0,2.0
335,1.0,1.0,1.0,1.0,2.0,1.0,1.0,1.0,1.0
336,6.0,5.0,5.0,8.0,4.0,10.0,3.0,4.0,1.0
337,1.0,1.0,1.0,1.0,2.0,1.0,3.0,1.0,1.0
338,1.0,1.0,1.0,1.0,1.0,1.0,2.0,1.0,1.0
339,8.0,5.0,5.0,5.0,2.0,10.0,4.0,3.0,1.0
340,10.0,3.0,3.0,1.0,2.0,10.0,7.0,6.0,1.0
341,1.0,1.0,1.0,1.0,2.0,1.0,3.0,1.0,1.0
342,2.0,1.0,1.0,1.0,2.0,1.0,1.0,1.0,1.0
343,1.0,1.0,1.0,1.0,2.0,1.0,1.0,1.0,1.0
344,7.0,6.0,4.0,8.0,10.0,10.0,9.0,5.0,3.0
345,1.0,1.0,1.0,1.0,2.0,1.0,1.0,1.0,1.0
346,5.0,2.0,2.0,2.0,3.0,1.0,1.0,3.0,1.0
347,1.0,1.0,1.0,1.0,1.0,1.0,1.0,3.0,1.0
348,3.0,4.0,4.0,10.0,5.0,1.0,3.0,3.0,1.0
349,4.0,2.0,3.0,5.0,3.0,8.0,7.0,6.0,1.0
350,5.0,1.0,1.0,3.0,2.0,1.0,1.0,1.0,1.0
351,2.0,1.0,1.0,1.0,2.0,1.0,3.0,1.0,1.0
352,3.0,4.0,5.0,3.0,7.0,3.0,4.0,6.0,1.0
353,2.0,7.0,10.0,10.0,7.0,10.0,4.0,9.0,4.0
354,1.0,1.0,1.0,1.0,2.0,1.0,2.0,1.0,1.0
355,4.0,1.0,1.0,1.0,3.0,1.0,2.0,2.0,1.0
356,5.0,3.0,3.0,1.0,3.0,3.0,3.0,3.0,3.0
357,8.0,10.0,10.0,7.0,10.0,10.0,7.0,3.0,8.0
358,8.0,10.0,5.0,3.0,8.0,4.0,4.0,10.0,3.0
359,10.0,3.0,5.0,4.0,3.0,7.0,3.0,5.0,3.0
360,6.0,10.0,10.0,10.0,10.0,10.0,8.0,10.0,10.0
361,3.0,10.0,3.0,10.0,6.0,10.0,5.0,1.0,4.0
362,3.0,2.0,2.0,1.0,4.0,3.0,2.0,1.0,1.0
363,4.0,4.0,4.0,2.0,2.0,3.0,2.0,1.0,1.0
364,2.0,1.0,1.0,1.0,2.0,1.0,3.0,1.0,1.0
365,2.0,1.0,1.0,1.0,2.0,1.0,2.0,1.0,1.0
366,6.0,10.0,10.0,10.0,8.0,10.0,7.0,10.0,7.0
367,5.0,8.0,8.0,10.0,5.0,10.0,8.0,10.0,3.0
368,1.0,1.0,3.0,1.0,2.0,1.0,1.0,1.0,1.0
369,1.0,1.0,3.0,1.0,1.0,1.0,2.0,1.0,1.0
370,4.0,3.0,2.0,1.0,3.0,1.0,2.0,1.0,1.0
371,1.0,1.0,3.0,1.0,2.0,1.0,1.0,1.0,1.0
372,4.0,1.0,2.0,1.0,2.0,1.0,2.0,1.0,1.0
373,5.0,1.0,1.0,2.0,2.0,1.0,2.0,1.0,1.0
374,3.0,1.0,2.0,1.0,2.0,1.0,2.0,1.0,1.0
375,1.0,1.0,1.0,1.0,2.0,1.0,1.0,1.0,1.0
376,1.0,1.0,1.0,1.0,2.0,1.0,2.0,1.0,1.0
377,1.0,1.0,1.0,1.0,1.0,1.0,2.0,1.0,1.0
378,3.0,1.0,1.0,4.0,3.0,1.0,2.0,2.0,1.0
379,5.0,3.0,4.0,1.0,4.0,1.0,3.0,1.0,1.0
380,1.0,1.0,1.0,1.0,2.0,1.0,1.0,1.0,1.0
381,10.0,6.0,3.0,6.0,4.0,10.0,7.0,8.0,4.0
382,3.0,2.0,2.0,2.0,2.0,1.0,3.0,2.0,1.0
383,2.0,1.0,1.0,1.0,2.0,1.0,1.0,1.0,1.0
384,2.0,1.0,1.0,1.0,2.0,1.0,1.0,1.0,1.0
385,3.0,3.0,2.0,2.0,3.0,1.0,1.0,2.0,3.0
386,7.0,6.0,6.0,3.0,2.0,10.0,7.0,1.0,1.0
387,5.0,3.0,3.0,2.0,3.0,1.0,3.0,1.0,1.0
388,2.0,1.0,1.0,1.0,2.0,1.0,2.0,2.0,1.0
389,5.0,1.0,1.0,1.0,3.0,2.0,2.0,2.0,1.0
390,1.0,1.0,1.0,2.0,2.0,1.0,2.0,1.0,1.0
391,10.0,8.0,7.0,4.0,3.0,10.0,7.0,9.0,1.0
392,3.0,1.0,1.0,1.0,2.0,1.0,2.0,1.0,1.0
393,1.0,1.0,1.0,1.0,1.0,1.0,1.0,1.0,1.0
394,1.0,2.0,3.0,1.0,2.0,1.0,2.0,1.0,1.0
395,3.0,1.0,1.0,1.0,2.0,1.0,2.0,1.0,1.0
396,3.0,1.0,1.0,1.0,2.0,1.0,3.0,1.0,1.0
397,4.0,1.0,1.0,1.0,2.0,1.0,1.0,1.0,1.0
398,3.0,2.0,1.0,1.0,2.0,1.0,2.0,2.0,1.0
399,1.0,2.0,3.0,1.0,2.0,1.0,1.0,1.0,1.0
400,3.0,10.0,8.0,7.0,6.0,9.0,9.0,3.0,8.0
401,3.0,1.0,1.0,1.0,2.0,1.0,1.0,1.0,1.0
402,5.0,3.0,3.0,1.0,2.0,1.0,2.0,1.0,1.0
403,3.0,1.0,1.0,1.0,2.0,4.0,1.0,1.0,1.0
404,1.0,2.0,1.0,3.0,2.0,1.0,1.0,2.0,1.0
405,1.0,1.0,1.0,1.0,2.0,1.0,2.0,1.0,1.0
406,4.0,2.0,2.0,1.0,2.0,1.0,2.0,1.0,1.0
407,1.0,1.0,1.0,1.0,2.0,1.0,2.0,1.0,1.0
408,2.0,3.0,2.0,2.0,2.0,2.0,3.0,1.0,1.0
409,3.0,1.0,2.0,1.0,2.0,1.0,2.0,1.0,1.0
410,1.0,1.0,1.0,1.0,2.0,1.0,2.0,1.0,1.0
411,1.0,1.0,1.0,1.0,1.0,,2.0,1.0,1.0
412,10.0,10.0,10.0,6.0,8.0,4.0,8.0,5.0,1.0
413,5.0,1.0,2.0,1.0,2.0,1.0,3.0,1.0,1.0
414,8.0,5.0,6.0,2.0,3.0,10.0,6.0,6.0,1.0
415,3.0,3.0,2.0,6.0,3.0,3.0,3.0,5.0,1.0
416,8.0,7.0,8.0,5.0,10.0,10.0,7.0,2.0,1.0
417,1.0,1.0,1.0,1.0,2.0,1.0,2.0,1.0,1.0
418,5.0,2.0,2.0,2.0,2.0,2.0,3.0,2.0,2.0
419,2.0,3.0,1.0,1.0,5.0,1.0,1.0,1.0,1.0
420,3.0,2.0,2.0,3.0,2.0,3.0,3.0,1.0,1.0
421,10.0,10.0,10.0,7.0,10.0,10.0,8.0,2.0,1.0
422,4.0,3.0,3.0,1.0,2.0,1.0,3.0,3.0,1.0
423,5.0,1.0,3.0,1.0,2.0,1.0,2.0,1.0,1.0
424,3.0,1.0,1.0,1.0,2.0,1.0,1.0,1.0,1.0
425,9.0,10.0,10.0,10.0,10.0,10.0,10.0,10.0,1.0
426,5.0,3.0,6.0,1.0,2.0,1.0,1.0,1.0,1.0
427,8.0,7.0,8.0,2.0,4.0,2.0,5.0,10.0,1.0
428,1.0,1.0,1.0,1.0,2.0,1.0,2.0,1.0,1.0
429,2.0,1.0,1.0,1.0,2.0,1.0,2.0,1.0,1.0
430,1.0,3.0,1.0,1.0,2.0,1.0,2.0,2.0,1.0
431,5.0,1.0,1.0,3.0,4.0,1.0,3.0,2.0,1.0
432,5.0,1.0,1.0,1.0,2.0,1.0,2.0,2.0,1.0
433,3.0,2.0,2.0,3.0,2.0,1.0,1.0,1.0,1.0
434,6.0,9.0,7.0,5.0,5.0,8.0,4.0,2.0,1.0
435,10.0,8.0,10.0,1.0,3.0,10.0,5.0,1.0,1.0
436,10.0,10.0,10.0,1.0,6.0,1.0,2.0,8.0,1.0
437,4.0,1.0,1.0,1.0,2.0,1.0,1.0,1.0,1.0
438,4.0,1.0,3.0,3.0,2.0,1.0,1.0,1.0,1.0
439,5.0,1.0,1.0,1.0,2.0,1.0,1.0,1.0,1.0
440,10.0,4.0,3.0,10.0,4.0,10.0,10.0,1.0,1.0
441,5.0,2.0,2.0,4.0,2.0,4.0,1.0,1.0,1.0
442,1.0,1.0,1.0,3.0,2.0,3.0,1.0,1.0,1.0
443,1.0,1.0,1.0,1.0,2.0,2.0,1.0,1.0,1.0
444,5.0,1.0,1.0,6.0,3.0,1.0,2.0,1.0,1.0
445,2.0,1.0,1.0,1.0,2.0,1.0,1.0,1.0,1.0
446,1.0,1.0,1.0,1.0,2.0,1.0,1.0,1.0,1.0
447,5.0,1.0,1.0,1.0,2.0,1.0,1.0,1.0,1.0
448,1.0,1.0,1.0,1.0,1.0,1.0,1.0,1.0,1.0
449,5.0,7.0,9.0,8.0,6.0,10.0,8.0,10.0,1.0
450,4.0,1.0,1.0,3.0,1.0,1.0,2.0,1.0,1.0
451,5.0,1.0,1.0,1.0,2.0,1.0,1.0,1.0,1.0
452,3.0,1.0,1.0,3.0,2.0,1.0,1.0,1.0,1.0
453,4.0,5.0,5.0,8.0,6.0,10.0,10.0,7.0,1.0
454,2.0,3.0,1.0,1.0,3.0,1.0,1.0,1.0,1.0
455,10.0,2.0,2.0,1.0,2.0,6.0,1.0,1.0,2.0
456,10.0,6.0,5.0,8.0,5.0,10.0,8.0,6.0,1.0
457,8.0,8.0,9.0,6.0,6.0,3.0,10.0,10.0,1.0
458,5.0,1.0,2.0,1.0,2.0,1.0,1.0,1.0,1.0
459,5.0,1.0,3.0,1.0,2.0,1.0,1.0,1.0,1.0
460,5.0,1.0,1.0,3.0,2.0,1.0,1.0,1.0,1.0
461,3.0,1.0,1.0,1.0,2.0,5.0,1.0,1.0,1.0
462,6.0,1.0,1.0,3.0,2.0,1.0,1.0,1.0,1.0
463,4.0,1.0,1.0,1.0,2.0,1.0,1.0,2.0,1.0
464,4.0,1.0,1.0,1.0,2.0,1.0,1.0,1.0,1.0
465,10.0,9.0,8.0,7.0,6.0,4.0,7.0,10.0,3.0
466,10.0,6.0,6.0,2.0,4.0,10.0,9.0,7.0,1.0
467,6.0,6.0,6.0,5.0,4.0,10.0,7.0,6.0,2.0
468,4.0,1.0,1.0,1.0,2.0,1.0,1.0,1.0,1.0
469,1.0,1.0,2.0,1.0,2.0,1.0,2.0,1.0,1.0
470,3.0,1.0,1.0,1.0,1.0,1.0,2.0,1.0,1.0
471,6.0,1.0,1.0,3.0,2.0,1.0,1.0,1.0,1.0
472,6.0,1.0,1.0,1.0,1.0,1.0,1.0,1.0,1.0
473,4.0,1.0,1.0,1.0,2.0,1.0,1.0,1.0,1.0
474,5.0,1.0,1.0,1.0,2.0,1.0,1.0,1.0,1.0
475,3.0,1.0,1.0,1.0,2.0,1.0,1.0,1.0,1.0
476,4.0,1.0,2.0,1.0,2.0,1.0,1.0,1.0,1.0
477,4.0,1.0,1.0,1.0,2.0,1.0,1.0,1.0,1.0
478,5.0,2.0,1.0,1.0,2.0,1.0,1.0,1.0,1.0
479,4.0,8.0,7.0,10.0,4.0,10.0,7.0,5.0,1.0
480,5.0,1.0,1.0,1.0,1.0,1.0,1.0,1.0,1.0
481,5.0,3.0,2.0,4.0,2.0,1.0,1.0,1.0,1.0
482,9.0,10.0,10.0,10.0,10.0,5.0,10.0,10.0,10.0
483,8.0,7.0,8.0,5.0,5.0,10.0,9.0,10.0,1.0
484,5.0,1.0,2.0,1.0,2.0,1.0,1.0,1.0,1.0
485,1.0,1.0,1.0,3.0,1.0,3.0,1.0,1.0,1.0
486,3.0,1.0,1.0,1.0,1.0,1.0,2.0,1.0,1.0
487,10.0,10.0,10.0,10.0,6.0,10.0,8.0,1.0,5.0
488,3.0,6.0,4.0,10.0,3.0,3.0,3.0,4.0,1.0
489,6.0,3.0,2.0,1.0,3.0,4.0,4.0,1.0,1.0
490,1.0,1.0,1.0,1.0,2.0,1.0,1.0,1.0,1.0
491,5.0,8.0,9.0,4.0,3.0,10.0,7.0,1.0,1.0
492,4.0,1.0,1.0,1.0,1.0,1.0,2.0,1.0,1.0
493,5.0,10.0,10.0,10.0,6.0,10.0,6.0,5.0,2.0
494,5.0,1.0,2.0,10.0,4.0,5.0,2.0,1.0,1.0
495,3.0,1.0,1.0,1.0,1.0,1.0,2.0,1.0,1.0
496,1.0,1.0,1.0,1.0,1.0,1.0,1.0,1.0,1.0
497,4.0,2.0,1.0,1.0,2.0,1.0,1.0,1.0,1.0
498,4.0,1.0,1.0,1.0,2.0,1.0,2.0,1.0,1.0
499,4.0,1.0,1.0,1.0,2.0,1.0,2.0,1.0,1.0
500,6.0,1.0,1.0,1.0,2.0,1.0,3.0,1.0,1.0
501,4.0,1.0,1.0,1.0,2.0,1.0,2.0,1.0,1.0
502,4.0,1.0,1.0,2.0,2.0,1.0,2.0,1.0,1.0
503,4.0,1.0,1.0,1.0,2.0,1.0,3.0,1.0,1.0
504,1.0,1.0,1.0,1.0,2.0,1.0,1.0,1.0,1.0
505,3.0,3.0,1.0,1.0,2.0,1.0,1.0,1.0,1.0
506,8.0,10.0,10.0,10.0,7.0,5.0,4.0,8.0,7.0
507,1.0,1.0,1.0,1.0,2.0,4.0,1.0,1.0,1.0
508,5.0,1.0,1.0,1.0,2.0,1.0,1.0,1.0,1.0
509,2.0,1.0,1.0,1.0,2.0,1.0,1.0,1.0,1.0
510,1.0,1.0,1.0,1.0,2.0,1.0,1.0,1.0,1.0
511,5.0,1.0,1.0,1.0,2.0,1.0,2.0,1.0,1.0
512,5.0,1.0,1.0,1.0,2.0,1.0,1.0,1.0,1.0
513,3.0,1.0,1.0,1.0,1.0,1.0,2.0,1.0,1.0
514,6.0,6.0,7.0,10.0,3.0,10.0,8.0,10.0,2.0
515,4.0,10.0,4.0,7.0,3.0,10.0,9.0,10.0,1.0
516,1.0,1.0,1.0,1.0,1.0,1.0,1.0,1.0,1.0
517,1.0,1.0,1.0,1.0,1.0,1.0,2.0,1.0,1.0
518,3.0,1.0,2.0,2.0,2.0,1.0,1.0,1.0,1.0
519,4.0,7.0,8.0,3.0,4.0,10.0,9.0,1.0,1.0
520,1.0,1.0,1.0,1.0,3.0,1.0,1.0,1.0,1.0
521,4.0,1.0,1.0,1.0,3.0,1.0,1.0,1.0,1.0
522,10.0,4.0,5.0,4.0,3.0,5.0,7.0,3.0,1.0
523,7.0,5.0,6.0,10.0,4.0,10.0,5.0,3.0,1.0
524,3.0,1.0,1.0,1.0,2.0,1.0,2.0,1.0,1.0
525,3.0,1.0,1.0,2.0,2.0,1.0,1.0,1.0,1.0
526,4.0,1.0,1.0,1.0,2.0,1.0,1.0,1.0,1.0
527,4.0,1.0,1.0,1.0,2.0,1.0,3.0,1.0,1.0
528,6.0,1.0,3.0,2.0,2.0,1.0,1.0,1.0,1.0
529,4.0,1.0,1.0,1.0,1.0,1.0,2.0,1.0,1.0
530,7.0,4.0,4.0,3.0,4.0,10.0,6.0,9.0,1.0
531,4.0,2.0,2.0,1.0,2.0,1.0,2.0,1.0,1.0
532,1.0,1.0,1.0,1.0,1.0,1.0,3.0,1.0,1.0
533,3.0,1.0,1.0,1.0,2.0,1.0,2.0,1.0,1.0
534,2.0,1.0,1.0,1.0,2.0,1.0,2.0,1.0,1.0
535,1.0,1.0,3.0,2.0,2.0,1.0,3.0,1.0,1.0
536,5.0,1.0,1.0,1.0,2.0,1.0,3.0,1.0,1.0
537,5.0,1.0,2.0,1.0,2.0,1.0,3.0,1.0,1.0
538,4.0,1.0,1.0,1.0,2.0,1.0,2.0,1.0,1.0
539,6.0,1.0,1.0,1.0,2.0,1.0,2.0,1.0,1.0
540,5.0,1.0,1.0,1.0,2.0,2.0,2.0,1.0,1.0
541,3.0,1.0,1.0,1.0,2.0,1.0,1.0,1.0,1.0
542,5.0,3.0,1.0,1.0,2.0,1.0,1.0,1.0,1.0
543,4.0,1.0,1.0,1.0,2.0,1.0,2.0,1.0,1.0
544,2.0,1.0,3.0,2.0,2.0,1.0,2.0,1.0,1.0
545,5.0,1.0,1.0,1.0,2.0,1.0,2.0,1.0,1.0
546,6.0,10.0,10.0,10.0,4.0,10.0,7.0,10.0,1.0
547,2.0,1.0,1.0,1.0,1.0,1.0,1.0,1.0,1.0
548,3.0,1.0,1.0,1.0,1.0,1.0,1.0,1.0,1.0
549,7.0,8.0,3.0,7.0,4.0,5.0,7.0,8.0,2.0
550,3.0,1.0,1.0,1.0,2.0,1.0,2.0,1.0,1.0
551,1.0,1.0,1.0,1.0,2.0,1.0,3.0,1.0,1.0
552,3.0,2.0,2.0,2.0,2.0,1.0,4.0,2.0,1.0
553,4.0,4.0,2.0,1.0,2.0,5.0,2.0,1.0,2.0
554,3.0,1.0,1.0,1.0,2.0,1.0,1.0,1.0,1.0
555,4.0,3.0,1.0,1.0,2.0,1.0,4.0,8.0,1.0
556,5.0,2.0,2.0,2.0,1.0,1.0,2.0,1.0,1.0
557,5.0,1.0,1.0,3.0,2.0,1.0,1.0,1.0,1.0
558,2.0,1.0,1.0,1.0,2.0,1.0,2.0,1.0,1.0
559,5.0,1.0,1.0,1.0,2.0,1.0,2.0,1.0,1.0
560,5.0,1.0,1.0,1.0,2.0,1.0,3.0,1.0,1.0
561,5.0,1.0,1.0,1.0,2.0,1.0,3.0,1.0,1.0
562,1.0,1.0,1.0,1.0,2.0,1.0,3.0,1.0,1.0
563,3.0,1.0,1.0,1.0,2.0,1.0,2.0,1.0,1.0
564,4.0,1.0,1.0,1.0,2.0,1.0,3.0,2.0,1.0
565,5.0,7.0,10.0,10.0,5.0,10.0,10.0,10.0,1.0
566,3.0,1.0,2.0,1.0,2.0,1.0,3.0,1.0,1.0
567,4.0,1.0,1.0,1.0,2.0,3.0,2.0,1.0,1.0
568,8.0,4.0,4.0,1.0,6.0,10.0,2.0,5.0,2.0
569,10.0,10.0,8.0,10.0,6.0,5.0,10.0,3.0,1.0
570,8.0,10.0,4.0,4.0,8.0,10.0,8.0,2.0,1.0
571,7.0,6.0,10.0,5.0,3.0,10.0,9.0,10.0,2.0
572,3.0,1.0,1.0,1.0,2.0,1.0,2.0,1.0,1.0
573,1.0,1.0,1.0,1.0,2.0,1.0,2.0,1.0,1.0
574,10.0,9.0,7.0,3.0,4.0,2.0,7.0,7.0,1.0
575,5.0,1.0,2.0,1.0,2.0,1.0,3.0,1.0,1.0
576,5.0,1.0,1.0,1.0,2.0,1.0,2.0,1.0,1.0
577,1.0,1.0,1.0,1.0,2.0,1.0,2.0,1.0,1.0
578,1.0,1.0,1.0,1.0,2.0,1.0,2.0,1.0,1.0
579,1.0,1.0,1.0,1.0,2.0,1.0,3.0,1.0,1.0
580,5.0,1.0,2.0,1.0,2.0,1.0,2.0,1.0,1.0
581,5.0,7.0,10.0,6.0,5.0,10.0,7.0,5.0,1.0
582,6.0,10.0,5.0,5.0,4.0,10.0,6.0,10.0,1.0
583,3.0,1.0,1.0,1.0,2.0,1.0,1.0,1.0,1.0
584,5.0,1.0,1.0,6.0,3.0,1.0,1.0,1.0,1.0
585,1.0,1.0,1.0,1.0,2.0,1.0,1.0,1.0,1.0
586,8.0,10.0,10.0,10.0,6.0,10.0,10.0,10.0,1.0
587,5.0,1.0,1.0,1.0,2.0,1.0,2.0,2.0,1.0
588,9.0,8.0,8.0,9.0,6.0,3.0,4.0,1.0,1.0
589,5.0,1.0,1.0,1.0,2.0,1.0,1.0,1.0,1.0
590,4.0,10.0,8.0,5.0,4.0,1.0,10.0,1.0,1.0
591,2.0,5.0,7.0,6.0,4.0,10.0,7.0,6.0,1.0
592,10.0,3.0,4.0,5.0,3.0,10.0,4.0,1.0,1.0
593,5.0,1.0,2.0,1.0,2.0,1.0,1.0,1.0,1.0
594,4.0,8.0,6.0,3.0,4.0,10.0,7.0,1.0,1.0
595,5.0,1.0,1.0,1.0,2.0,1.0,2.0,1.0,1.0
596,4.0,1.0,2.0,1.0,2.0,1.0,2.0,1.0,1.0
597,5.0,1.0,3.0,1.0,2.0,1.0,3.0,1.0,1.0
598,3.0,1.0,1.0,1.0,2.0,1.0,2.0,1.0,1.0
599,5.0,2.0,4.0,1.0,1.0,1.0,1.0,1.0,1.0
600,3.0,1.0,1.0,1.0,2.0,1.0,2.0,1.0,1.0
601,1.0,1.0,1.0,1.0,1.0,1.0,2.0,1.0,1.0
602,4.0,1.0,1.0,1.0,2.0,1.0,2.0,1.0,1.0
603,5.0,4.0,6.0,8.0,4.0,1.0,8.0,10.0,1.0
604,5.0,3.0,2.0,8.0,5.0,10.0,8.0,1.0,2.0
605,10.0,5.0,10.0,3.0,5.0,8.0,7.0,8.0,3.0
606,4.0,1.0,1.0,2.0,2.0,1.0,1.0,1.0,1.0
607,1.0,1.0,1.0,1.0,2.0,1.0,1.0,1.0,1.0
608,5.0,10.0,10.0,10.0,10.0,10.0,10.0,1.0,1.0
609,5.0,1.0,1.0,1.0,2.0,1.0,1.0,1.0,1.0
610,10.0,4.0,3.0,10.0,3.0,10.0,7.0,1.0,2.0
611,5.0,10.0,10.0,10.0,5.0,2.0,8.0,5.0,1.0
612,8.0,10.0,10.0,10.0,6.0,10.0,10.0,10.0,10.0
613,2.0,3.0,1.0,1.0,2.0,1.0,2.0,1.0,1.0
614,2.0,1.0,1.0,1.0,1.0,1.0,2.0,1.0,1.0
615,4.0,1.0,3.0,1.0,2.0,1.0,2.0,1.0,1.0
616,3.0,1.0,1.0,1.0,2.0,1.0,2.0,1.0,1.0
617,1.0,1.0,1.0,1.0,1.0,,1.0,1.0,1.0
618,4.0,1.0,1.0,1.0,2.0,1.0,2.0,1.0,1.0
619,5.0,1.0,1.0,1.0,2.0,1.0,2.0,1.0,1.0
620,3.0,1.0,1.0,1.0,2.0,1.0,2.0,1.0,1.0
621,6.0,3.0,3.0,3.0,3.0,2.0,6.0,1.0,1.0
622,7.0,1.0,2.0,3.0,2.0,1.0,2.0,1.0,1.0
623,1.0,1.0,1.0,1.0,2.0,1.0,1.0,1.0,1.0
624,5.0,1.0,1.0,2.0,1.0,1.0,2.0,1.0,1.0
625,3.0,1.0,3.0,1.0,3.0,4.0,1.0,1.0,1.0
626,4.0,6.0,6.0,5.0,7.0,6.0,7.0,7.0,3.0
627,2.0,1.0,1.0,1.0,2.0,5.0,1.0,1.0,1.0
628,2.0,1.0,1.0,1.0,2.0,1.0,1.0,1.0,1.0
629,4.0,1.0,1.0,1.0,2.0,1.0,1.0,1.0,1.0
630,6.0,2.0,3.0,1.0,2.0,1.0,1.0,1.0,1.0
631,5.0,1.0,1.0,1.0,2.0,1.0,2.0,1.0,1.0
632,1.0,1.0,1.0,1.0,2.0,1.0,1.0,1.0,1.0
633,8.0,7.0,4.0,4.0,5.0,3.0,5.0,10.0,1.0
634,3.0,1.0,1.0,1.0,2.0,1.0,1.0,1.0,1.0
635,3.0,1.0,4.0,1.0,2.0,1.0,1.0,1.0,1.0
636,10.0,10.0,7.0,8.0,7.0,1.0,10.0,10.0,3.0
637,4.0,2.0,4.0,3.0,2.0,2.0,2.0,1.0,1.0
638,4.0,1.0,1.0,1.0,2.0,1.0,1.0,1.0,1.0
639,5.0,1.0,1.0,3.0,2.0,1.0,1.0,1.0,1.0
640,4.0,1.0,1.0,3.0,2.0,1.0,1.0,1.0,1.0
641,3.0,1.0,1.0,1.0,2.0,1.0,2.0,1.0,1.0
642,3.0,1.0,1.0,1.0,2.0,1.0,2.0,1.0,1.0
643,1.0,1.0,1.0,1.0,2.0,1.0,1.0,1.0,1.0
644,2.0,1.0,1.0,1.0,2.0,1.0,1.0,1.0,1.0
645,3.0,1.0,1.0,1.0,2.0,1.0,2.0,1.0,1.0
646,1.0,2.0,2.0,1.0,2.0,1.0,1.0,1.0,1.0
647,1.0,1.0,1.0,3.0,2.0,1.0,1.0,1.0,1.0
648,5.0,10.0,10.0,10.0,10.0,2.0,10.0,10.0,10.0
649,3.0,1.0,1.0,1.0,2.0,1.0,2.0,1.0,1.0
650,3.0,1.0,1.0,2.0,3.0,4.0,1.0,1.0,1.0
651,1.0,2.0,1.0,3.0,2.0,1.0,2.0,1.0,1.0
652,5.0,1.0,1.0,1.0,2.0,1.0,2.0,2.0,1.0
653,4.0,1.0,1.0,1.0,2.0,1.0,2.0,1.0,1.0
654,3.0,1.0,1.0,1.0,2.0,1.0,3.0,1.0,1.0
655,3.0,1.0,1.0,1.0,2.0,1.0,2.0,1.0,1.0
656,5.0,1.0,1.0,1.0,2.0,1.0,2.0,1.0,1.0
657,5.0,4.0,5.0,1.0,8.0,1.0,3.0,6.0,1.0
658,7.0,8.0,8.0,7.0,3.0,10.0,7.0,2.0,3.0
659,1.0,1.0,1.0,1.0,2.0,1.0,1.0,1.0,1.0
660,1.0,1.0,1.0,1.0,2.0,1.0,2.0,1.0,1.0
661,4.0,1.0,1.0,1.0,2.0,1.0,3.0,1.0,1.0
662,1.0,1.0,3.0,1.0,2.0,1.0,2.0,1.0,1.0
663,1.0,1.0,3.0,1.0,2.0,1.0,2.0,1.0,1.0
664,3.0,1.0,1.0,3.0,2.0,1.0,2.0,1.0,1.0
665,1.0,1.0,1.0,1.0,2.0,1.0,1.0,1.0,1.0
666,5.0,2.0,2.0,2.0,2.0,1.0,1.0,1.0,2.0
667,3.0,1.0,1.0,1.0,2.0,1.0,3.0,1.0,1.0
668,5.0,7.0,4.0,1.0,6.0,1.0,7.0,10.0,3.0
669,5.0,10.0,10.0,8.0,5.0,5.0,7.0,10.0,1.0
670,3.0,10.0,7.0,8.0,5.0,8.0,7.0,4.0,1.0
671,3.0,2.0,1.0,2.0,2.0,1.0,3.0,1.0,1.0
672,2.0,1.0,1.0,1.0,2.0,1.0,3.0,1.0,1.0
673,5.0,3.0,2.0,1.0,3.0,1.0,1.0,1.0,1.0
674,1.0,1.0,1.0,1.0,2.0,1.0,2.0,1.0,1.0
675,4.0,1.0,4.0,1.0,2.0,1.0,1.0,1.0,1.0
676,1.0,1.0,2.0,1.0,2.0,1.0,2.0,1.0,1.0
677,5.0,1.0,1.0,1.0,2.0,1.0,1.0,1.0,1.0
678,1.0,1.0,1.0,1.0,2.0,1.0,1.0,1.0,1.0
679,2.0,1.0,1.0,1.0,2.0,1.0,1.0,1.0,1.0
680,10.0,10.0,10.0,10.0,5.0,10.0,10.0,10.0,7.0
681,5.0,10.0,10.0,10.0,4.0,10.0,5.0,6.0,3.0
682,5.0,1.0,1.0,1.0,2.0,1.0,3.0,2.0,1.0
683,1.0,1.0,1.0,1.0,2.0,1.0,1.0,1.0,1.0
684,1.0,1.0,1.0,1.0,2.0,1.0,1.0,1.0,1.0
685,1.0,1.0,1.0,1.0,2.0,1.0,1.0,1.0,1.0
686,1.0,1.0,1.0,1.0,2.0,1.0,1.0,1.0,1.0
687,3.0,1.0,1.0,1.0,2.0,1.0,2.0,3.0,1.0
688,4.0,1.0,1.0,1.0,2.0,1.0,1.0,1.0,1.0
689,1.0,1.0,1.0,1.0,2.0,1.0,1.0,1.0,8.0
690,1.0,1.0,1.0,3.0,2.0,1.0,1.0,1.0,1.0
691,5.0,10.0,10.0,5.0,4.0,5.0,4.0,4.0,1.0
692,3.0,1.0,1.0,1.0,2.0,1.0,1.0,1.0,1.0
693,3.0,1.0,1.0,1.0,2.0,1.0,2.0,1.0,2.0
694,3.0,1.0,1.0,1.0,3.0,2.0,1.0,1.0,1.0
695,2.0,1.0,1.0,1.0,2.0,1.0,1.0,1.0,1.0
696,5.0,10.0,10.0,3.0,7.0,3.0,8.0,10.0,2.0
697,4.0,8.0,6.0,4.0,3.0,4.0,10.0,6.0,1.0
698,4.0,8.0,8.0,5.0,4.0,5.0,10.0,4.0,1.0
