,Class
0,1
1,1
2,2
3,1
4,1
5,1
6,2
7,1
8,1
9,1
10,2
11,1
12,1
13,1
14,2
15,1
16,1
17,1
18,2
19,1
20,1
21,1
22,2
23,1
24,1
25,1
26,2
27,1
28,1
29,1
30,2
31,1
32,1
33,1
34,2
35,1
36,1
37,1
38,2
39,1
40,1
41,1
42,2
43,1
44,1
45,1
46,2
47,1
48,1
49,1
50,2
51,1
52,1
53,1
54,2
55,1
56,1
57,1
58,2
59,1
60,1
61,1
62,2
63,1
64,1
65,1
66,2
67,1
68,1
69,1
70,2
71,1
72,1
73,1
74,2
75,1
76,1
77,1
78,2
79,1
80,1
81,1
82,2
83,1
84,1
85,1
86,2
87,1
88,1
89,1
90,2
91,1
92,1
93,1
94,2
95,1
96,1
97,1
98,2
99,1
100,1
101,1
102,2
103,1
104,1
105,1
106,2
107,1
108,1
109,1
110,2
111,1
112,1
113,1
114,2
115,1
116,1
117,1
118,2
119,1
120,1
121,1
122,2
123,1
124,1
125,1
126,2
127,1
128,1
129,1
130,2
131,1
132,1
133,1
134,2
135,1
136,1
137,1
138,2
139,1
140,1
141,1
142,2
143,1
144,1
145,1
146,2
147,1
148,1
149,1
150,2
151,1
152,1
153,1
154,2
155,1
156,1
157,2
158,1
159,2
160,1
161,2
162,1
163,2
164,1
165,2
166,1
167,2
168,1
169,2
170,1
171,2
172,1
173,2
174,1
175,2
176,1
177,2
178,1
179,2
180,1
181,2
