,surgical_lesion
0,2
1,2
2,2
3,1
4,2
5,2
6,1
7,1
8,1
9,2
10,1
11,1
12,2
13,2
14,1
15,1
16,2
17,2
18,1
19,2
20,1
21,2
22,1
23,1
24,1
25,2
26,1
27,2
28,2
29,2
30,1
31,1
32,1
33,1
34,1
35,1
36,2
37,1
38,2
39,1
40,1
41,1
42,2
43,1
44,1
45,1
46,1
47,2
48,1
49,2
50,2
51,1
52,2
53,2
54,1
55,1
56,1
57,1
58,1
59,1
60,2
61,2
62,1
63,2
64,1
65,1
66,1
67,2
68,2
69,2
70,1
71,2
72,1
73,1
74,1
75,1
76,1
77,2
78,1
79,1
80,1
81,1
82,1
83,1
84,1
85,2
86,1
87,1
88,2
89,2
90,1
91,1
92,2
93,1
94,2
95,1
96,1
97,2
98,2
99,2
100,2
101,1
102,2
103,1
104,1
105,1
106,1
107,2
108,1
109,1
110,1
111,1
112,1
113,1
114,1
115,2
116,1
117,1
118,1
119,2
120,1
121,1
122,2
123,1
124,1
125,1
126,1
127,1
128,2
129,1
130,1
131,1
132,1
133,1
134,1
135,1
136,1
137,1
138,2
139,2
140,2
141,2
142,1
143,2
144,2
145,1
146,1
147,1
148,1
149,2
150,2
151,1
152,1
153,2
154,1
155,2
156,2
157,1
158,2
159,2
160,1
161,1
162,2
163,1
164,1
165,2
166,2
167,2
168,1
169,1
170,2
171,1
172,1
173,1
174,1
175,1
176,1
177,1
178,1
179,2
180,1
181,2
182,1
183,2
184,2
185,1
186,1
187,1
188,1
189,1
190,1
191,2
192,1
193,1
194,2
195,2
196,2
197,1
198,2
199,2
200,1
201,1
202,1
203,2
204,1
205,2
206,1
207,1
208,1
209,2
210,1
211,1
212,2
213,1
214,2
215,1
216,2
217,1
218,1
219,1
220,2
221,1
222,1
223,1
224,1
225,2
226,1
227,1
228,1
229,1
230,1
231,2
232,1
233,1
234,2
235,1
236,2
237,2
238,1
239,1
240,1
241,2
242,1
243,1
244,1
245,1
246,1
247,1
248,1
249,2
250,1
251,1
252,1
253,2
254,1
255,1
256,1
257,1
258,2
259,1
260,2
261,2
262,2
263,1
264,1
265,1
266,2
267,2
268,2
269,1
270,1
271,1
272,1
273,1
274,1
275,1
276,2
277,2
278,2
279,2
280,2
281,1
282,1
283,1
284,2
285,1
286,1
287,2
288,1
289,1
290,2
291,1
292,1
293,2
294,2
295,2
296,1
297,1
298,1
299,2
300,2
301,2
302,1
303,2
304,2
305,1
306,2
307,2
308,1
309,1
310,1
311,2
312,2
313,1
314,2
315,2
316,1
317,2
318,1
319,1
320,1
321,1
322,1
323,1
324,1
325,2
326,2
327,2
328,1
329,2
330,1
331,2
332,2
333,1
334,2
335,1
336,1
337,1
338,2
339,2
340,2
341,2
342,1
343,1
344,1
345,1
346,2
347,1
348,1
349,1
350,1
351,1
352,2
353,1
354,1
355,1
356,1
357,1
358,1
359,1
360,1
361,2
362,1
363,1
364,2
365,1
366,2
367,1
