,decision
0,A
1,S
2,A
3,A
4,A
5,S
6,S
7,S
8,S
9,S
10,A
11,A
12,A
13,A
14,S
15,A
16,A
17,A
18,A
19,A
20,A
21,S
22,A
23,A
24,A
25,A
26,A
27,A
28,A
29,S
30,A
31,A
32,A
33,A
34,A
35,A
36,S
37,S
38,S
39,A
40,A
41,S
42,S
43,S
44,A
45,S
46,I
47,A
48,A
49,A
50,A
51,A
52,A
53,S
54,A
55,A
56,A
57,A
58,A
59,A
60,A
61,A
62,A
63,S
64,A
65,S
66,A
67,A
68,A
69,A
70,A
71,A
72,S
73,A
74,A
75,A
76,A
77,A
78,S
79,A
80,A
81,S
82,I
83,A
84,A
85,A
86,S
87,A
88,A
89,S
