,age,menopause,tumor-size,inv-nodes,node-caps,deg-malig,breast,breast-quad,irradiat
0,40-49,premeno,15-19,0-2,yes,3,right,left_up,no
1,50-59,ge40,15-19,0-2,no,1,right,central,no
2,50-59,ge40,35-39,0-2,no,2,left,left_low,no
3,40-49,premeno,35-39,0-2,yes,3,right,left_low,yes
4,40-49,premeno,30-34,3-5,yes,2,left,right_up,no
5,50-59,premeno,25-29,3-5,no,2,right,left_up,yes
6,50-59,ge40,40-44,0-2,no,3,left,left_up,no
7,40-49,premeno,10-14,0-2,no,2,left,left_up,no
8,40-49,premeno,0-4,0-2,no,2,right,right_low,no
9,40-49,ge40,40-44,15-17,yes,2,right,left_up,yes
10,50-59,premeno,25-29,0-2,no,2,left,left_low,no
11,60-69,ge40,15-19,0-2,no,2,right,left_up,no
12,50-59,ge40,30-34,0-2,no,1,right,central,no
13,50-59,ge40,25-29,0-2,no,2,right,left_up,no
14,40-49,premeno,25-29,0-2,no,2,left,left_low,yes
15,30-39,premeno,20-24,0-2,no,3,left,central,no
16,50-59,premeno,10-14,3-5,no,1,right,left_up,no
17,60-69,ge40,15-19,0-2,no,2,right,left_up,no
18,50-59,premeno,40-44,0-2,no,2,left,left_up,no
19,50-59,ge40,20-24,0-2,no,3,left,left_up,no
20,50-59,lt40,20-24,0-2,,1,left,left_low,no
21,60-69,ge40,40-44,3-5,no,2,right,left_up,yes
22,50-59,ge40,15-19,0-2,no,2,right,left_low,no
23,40-49,premeno,10-14,0-2,no,1,right,left_up,no
24,30-39,premeno,15-19,6-8,yes,3,left,left_low,yes
25,50-59,ge40,20-24,3-5,yes,2,right,left_up,no
26,50-59,ge40,10-14,0-2,no,2,right,left_low,no
27,40-49,premeno,10-14,0-2,no,1,right,left_up,no
28,60-69,ge40,30-34,3-5,yes,3,left,left_low,no
29,40-49,premeno,15-19,15-17,yes,3,left,left_low,no
30,60-69,ge40,30-34,0-2,no,3,right,central,no
31,60-69,ge40,25-29,3-5,,1,right,left_low,yes
32,50-59,ge40,25-29,0-2,no,3,left,right_up,no
33,50-59,ge40,20-24,0-2,no,3,right,left_up,no
34,40-49,premeno,30-34,0-2,no,1,left,left_low,yes
35,30-39,premeno,15-19,0-2,no,1,left,left_low,no
36,40-49,premeno,10-14,0-2,no,2,right,left_up,no
37,60-69,ge40,45-49,6-8,yes,3,left,central,no
38,40-49,ge40,20-24,0-2,no,3,left,left_low,no
39,40-49,premeno,10-14,0-2,no,1,right,right_low,no
40,30-39,premeno,35-39,0-2,no,3,left,left_low,no
41,40-49,premeno,35-39,9-11,yes,2,right,right_up,yes
42,60-69,ge40,25-29,0-2,no,2,right,left_low,no
43,50-59,ge40,20-24,3-5,yes,3,right,right_up,no
44,30-39,premeno,15-19,0-2,no,1,left,left_low,no
45,50-59,premeno,30-34,0-2,no,3,left,right_up,no
46,60-69,ge40,10-14,0-2,no,2,right,left_up,yes
47,40-49,premeno,35-39,0-2,yes,3,right,left_up,yes
48,50-59,premeno,50-54,0-2,yes,2,right,left_up,yes
49,50-59,ge40,40-44,0-2,no,3,right,left_up,no
50,70-79,ge40,15-19,9-11,,1,left,left_low,yes
51,50-59,lt40,30-34,0-2,no,3,right,left_up,no
52,40-49,premeno,0-4,0-2,no,3,left,central,no
53,70-79,ge40,40-44,0-2,no,1,right,right_up,no
54,40-49,premeno,25-29,0-2,,2,left,right_low,yes
55,50-59,ge40,25-29,15-17,yes,3,right,left_up,no
56,50-59,premeno,20-24,0-2,no,1,left,left_low,no
57,50-59,ge40,35-39,15-17,no,3,left,left_low,no
58,50-59,ge40,50-54,0-2,no,1,right,right_up,no
59,30-39,premeno,0-4,0-2,no,2,right,central,no
60,50-59,ge40,40-44,6-8,yes,3,left,left_low,yes
61,40-49,premeno,30-34,0-2,no,2,right,right_up,yes
62,40-49,ge40,20-24,0-2,no,3,left,left_up,no
63,40-49,premeno,30-34,15-17,yes,3,left,left_low,no
64,40-49,ge40,20-24,0-2,no,2,right,left_up,no
65,50-59,ge40,15-19,0-2,no,1,right,central,no
66,30-39,premeno,25-29,0-2,no,2,right,left_low,no
67,60-69,ge40,15-19,0-2,no,2,left,left_low,no
68,50-59,premeno,50-54,9-11,yes,2,right,left_up,no
69,30-39,premeno,10-14,0-2,no,1,right,left_low,no
70,50-59,premeno,25-29,3-5,yes,3,left,left_low,yes
71,60-69,ge40,25-29,3-5,,1,right,left_up,yes
72,60-69,ge40,10-14,0-2,no,1,right,left_low,no
73,50-59,ge40,30-34,6-8,yes,3,left,right_low,no
74,30-39,premeno,25-29,6-8,yes,3,left,right_low,yes
75,50-59,ge40,10-14,0-2,no,1,left,left_low,no
76,50-59,premeno,15-19,0-2,no,1,left,left_low,no
77,40-49,premeno,25-29,0-2,no,2,right,central,no
78,40-49,premeno,25-29,0-2,no,3,left,right_up,no
79,60-69,ge40,30-34,6-8,yes,2,right,right_up,no
80,50-59,lt40,15-19,0-2,no,2,left,left_low,no
81,40-49,premeno,25-29,0-2,no,2,right,left_low,no
82,40-49,premeno,30-34,0-2,no,1,right,left_up,no
83,60-69,ge40,15-19,0-2,no,2,left,left_up,yes
84,30-39,premeno,0-4,0-2,no,2,right,central,no
85,50-59,ge40,35-39,0-2,no,3,left,left_up,no
86,40-49,premeno,40-44,0-2,no,1,right,left_up,no
87,30-39,premeno,25-29,6-8,yes,2,right,left_up,yes
88,50-59,ge40,20-24,0-2,no,1,right,left_low,no
89,50-59,ge40,30-34,0-2,no,1,left,left_up,no
90,60-69,ge40,20-24,0-2,no,1,right,left_up,no
91,30-39,premeno,30-34,3-5,no,3,right,left_up,yes
92,50-59,lt40,20-24,0-2,,1,left,left_up,no
93,50-59,premeno,10-14,0-2,no,2,right,left_up,no
94,50-59,ge40,20-24,0-2,no,2,right,left_up,no
95,40-49,premeno,45-49,0-2,no,2,left,left_low,yes
96,30-39,premeno,40-44,0-2,no,1,left,left_up,no
97,50-59,premeno,10-14,0-2,no,1,left,left_low,no
98,60-69,ge40,30-34,0-2,no,3,right,left_up,yes
99,40-49,premeno,35-39,0-2,no,1,right,left_up,no
100,40-49,premeno,20-24,3-5,yes,2,left,left_low,yes
101,50-59,premeno,15-19,0-2,no,2,left,left_low,no
102,50-59,ge40,30-34,0-2,no,3,right,left_low,no
103,60-69,ge40,20-24,0-2,no,2,left,left_up,no
104,40-49,premeno,20-24,0-2,no,1,left,right_low,no
105,60-69,ge40,30-34,3-5,yes,2,left,central,yes
106,60-69,ge40,20-24,3-5,no,2,left,left_low,yes
107,50-59,premeno,25-29,0-2,no,2,left,right_up,no
108,50-59,ge40,30-34,0-2,no,1,right,right_up,no
109,40-49,premeno,20-24,0-2,no,2,left,right_low,no
110,60-69,ge40,15-19,0-2,no,1,right,left_up,no
111,60-69,ge40,30-34,0-2,no,2,left,left_low,yes
112,30-39,premeno,30-34,0-2,no,2,left,left_up,no
113,30-39,premeno,40-44,3-5,no,3,right,right_up,yes
114,60-69,ge40,5-9,0-2,no,1,left,central,no
115,60-69,ge40,10-14,0-2,no,1,left,left_up,no
116,40-49,premeno,30-34,6-8,yes,3,right,left_up,no
117,60-69,ge40,10-14,0-2,no,1,left,left_up,no
118,40-49,premeno,35-39,9-11,yes,2,right,left_up,yes
119,40-49,premeno,20-24,0-2,no,1,right,left_low,no
120,40-49,premeno,30-34,0-2,yes,3,right,right_up,no
121,50-59,premeno,25-29,0-2,yes,2,left,left_up,no
122,40-49,premeno,15-19,0-2,no,2,left,left_low,no
123,30-39,premeno,35-39,9-11,yes,3,left,left_low,no
124,30-39,premeno,10-14,0-2,no,2,left,right_low,no
125,50-59,ge40,30-34,0-2,no,1,right,left_low,no
126,60-69,ge40,30-34,0-2,no,2,left,left_up,no
127,60-69,ge40,25-29,0-2,no,2,left,left_low,no
128,40-49,premeno,15-19,0-2,no,2,left,left_up,no
129,60-69,ge40,15-19,0-2,no,2,right,left_low,no
130,40-49,premeno,30-34,0-2,no,2,left,right_low,no
131,20-29,premeno,35-39,0-2,no,2,right,right_up,no
132,40-49,premeno,30-34,0-2,no,3,right,right_up,no
133,40-49,premeno,25-29,0-2,no,2,right,left_low,no
134,30-39,premeno,30-34,0-2,no,3,left,left_low,no
135,30-39,premeno,15-19,0-2,no,1,right,left_low,no
136,50-59,ge40,0-4,0-2,no,1,right,central,no
137,50-59,ge40,0-4,0-2,no,1,left,left_low,no
138,60-69,ge40,50-54,0-2,no,3,right,left_up,no
139,50-59,premeno,30-34,0-2,no,1,left,central,no
140,60-69,ge40,20-24,24-26,yes,3,left,left_low,yes
141,40-49,premeno,25-29,0-2,no,2,left,left_up,no
142,40-49,premeno,30-34,3-5,no,2,right,left_up,no
143,50-59,premeno,20-24,3-5,yes,2,left,left_low,no
144,50-59,ge40,15-19,0-2,yes,2,left,central,yes
145,50-59,premeno,10-14,0-2,no,3,left,left_low,no
146,30-39,premeno,30-34,9-11,no,2,right,left_up,yes
147,60-69,ge40,10-14,0-2,no,1,left,left_low,no
148,40-49,premeno,40-44,0-2,no,2,right,left_low,no
149,50-59,ge40,30-34,9-11,,3,left,left_up,yes
150,40-49,premeno,50-54,0-2,no,2,right,left_low,yes
151,50-59,ge40,15-19,0-2,no,2,right,right_up,no
152,50-59,ge40,40-44,3-5,yes,2,left,left_low,no
153,30-39,premeno,25-29,3-5,yes,3,left,left_low,yes
154,60-69,ge40,10-14,0-2,no,2,left,left_low,no
155,60-69,lt40,10-14,0-2,no,1,left,right_up,no
156,30-39,premeno,30-34,0-2,no,2,left,left_up,no
157,30-39,premeno,20-24,3-5,yes,2,left,left_low,no
158,50-59,ge40,10-14,0-2,no,1,right,left_up,no
159,60-69,ge40,25-29,0-2,no,3,right,left_up,no
160,50-59,ge40,25-29,3-5,yes,3,right,left_up,no
161,40-49,premeno,30-34,6-8,no,2,left,left_up,no
162,60-69,ge40,50-54,0-2,no,2,left,left_low,no
163,50-59,premeno,30-34,0-2,no,3,left,left_low,no
164,40-49,ge40,20-24,3-5,no,3,right,left_low,yes
165,50-59,ge40,30-34,6-8,yes,2,left,right_low,yes
166,60-69,ge40,25-29,3-5,no,2,right,right_up,no
167,40-49,premeno,20-24,0-2,no,2,left,central,no
168,40-49,premeno,20-24,0-2,no,2,left,left_up,no
169,40-49,premeno,50-54,0-2,no,2,left,left_low,no
170,50-59,ge40,20-24,0-2,no,2,right,central,no
171,50-59,ge40,30-34,3-5,no,3,right,left_up,no
172,40-49,ge40,25-29,0-2,no,2,left,left_low,no
173,50-59,premeno,25-29,0-2,no,1,right,left_up,no
174,40-49,premeno,40-44,3-5,yes,3,right,left_up,yes
175,40-49,premeno,20-24,0-2,no,2,right,left_up,no
176,40-49,premeno,20-24,3-5,no,2,right,left_up,no
177,40-49,premeno,25-29,9-11,yes,3,right,left_up,no
178,40-49,premeno,25-29,0-2,no,2,right,left_low,no
179,40-49,premeno,20-24,0-2,no,1,right,right_up,no
180,30-39,premeno,40-44,0-2,no,2,right,right_up,no
181,60-69,ge40,10-14,6-8,yes,3,left,left_up,yes
182,40-49,premeno,35-39,0-2,no,1,left,left_low,no
183,50-59,ge40,30-34,3-5,no,3,left,left_low,no
184,40-49,premeno,5-9,0-2,no,1,left,left_low,yes
185,60-69,ge40,15-19,0-2,no,1,left,right_low,no
186,40-49,premeno,30-34,0-2,no,3,right,right_up,no
187,40-49,premeno,25-29,0-2,no,3,left,left_up,no
188,50-59,ge40,5-9,0-2,no,2,right,right_up,no
189,50-59,premeno,25-29,0-2,no,2,right,right_low,no
190,50-59,premeno,25-29,0-2,no,2,left,right_up,no
191,40-49,premeno,10-14,0-2,no,2,left,left_low,yes
192,60-69,ge40,35-39,6-8,yes,3,left,left_low,no
193,60-69,ge40,50-54,0-2,no,2,right,left_up,yes
194,40-49,premeno,25-29,0-2,no,2,right,left_up,no
195,30-39,premeno,20-24,3-5,no,2,right,central,no
196,30-39,premeno,30-34,0-2,no,1,right,left_up,no
197,60-69,lt40,30-34,0-2,no,1,left,left_low,no
198,40-49,premeno,15-19,12-14,no,3,right,right_low,yes
199,60-69,ge40,20-24,0-2,no,3,right,left_low,no
200,30-39,premeno,5-9,0-2,no,2,left,right_low,no
201,40-49,premeno,30-34,0-2,no,3,left,left_up,no
202,60-69,ge40,30-34,0-2,no,3,left,left_low,no
203,40-49,premeno,25-29,0-2,no,1,right,right_low,no
204,40-49,premeno,25-29,0-2,no,1,left,right_low,no
205,60-69,ge40,40-44,3-5,yes,3,right,left_low,no
206,50-59,ge40,25-29,0-2,no,2,left,left_low,no
207,50-59,premeno,30-34,0-2,no,3,right,left_up,yes
208,40-49,ge40,30-34,3-5,no,3,left,left_low,no
209,40-49,premeno,25-29,0-2,no,1,right,left_low,yes
210,40-49,ge40,25-29,12-14,yes,3,left,right_low,yes
211,40-49,premeno,40-44,0-2,no,1,left,left_low,no
212,40-49,premeno,20-24,0-2,no,2,left,left_low,no
213,50-59,ge40,25-29,0-2,no,1,left,right_low,no
214,40-49,premeno,20-24,0-2,no,2,right,left_up,no
215,70-79,ge40,40-44,0-2,no,1,right,left_up,no
216,60-69,ge40,25-29,0-2,no,3,left,left_up,no
217,50-59,premeno,25-29,0-2,no,2,left,left_low,no
218,60-69,ge40,45-49,0-2,no,1,right,right_up,yes
219,50-59,ge40,20-24,0-2,yes,2,right,left_up,no
220,50-59,ge40,25-29,0-2,no,1,left,left_low,no
221,50-59,ge40,20-24,0-2,no,3,left,left_up,no
222,40-49,premeno,20-24,3-5,no,2,right,left_low,no
223,50-59,ge40,35-39,0-2,no,2,left,left_up,no
224,30-39,premeno,20-24,0-2,no,3,left,left_up,yes
225,60-69,ge40,30-34,0-2,no,1,right,left_up,no
226,60-69,ge40,25-29,0-2,no,3,right,left_low,no
227,40-49,ge40,30-34,0-2,no,2,left,left_up,yes
228,30-39,premeno,25-29,0-2,no,2,left,left_low,no
229,40-49,premeno,20-24,0-2,no,2,left,left_low,no
230,30-39,premeno,20-24,0-2,no,2,left,right_low,no
231,40-49,premeno,10-14,0-2,no,2,right,left_low,no
232,50-59,premeno,15-19,0-2,no,2,right,right_low,no
233,50-59,premeno,25-29,0-2,no,1,right,left_up,no
234,60-69,ge40,20-24,0-2,no,2,right,left_up,no
235,60-69,ge40,40-44,0-2,no,2,right,left_low,no
236,30-39,lt40,15-19,0-2,no,3,right,left_up,no
237,40-49,premeno,30-34,12-14,yes,3,left,left_up,yes
238,60-69,ge40,30-34,0-2,yes,2,right,right_up,yes
239,50-59,ge40,40-44,6-8,yes,3,left,left_low,yes
240,50-59,ge40,30-34,0-2,no,3,left,,no
241,70-79,ge40,10-14,0-2,no,2,left,central,no
242,30-39,premeno,40-44,0-2,no,2,left,left_low,yes
243,40-49,premeno,30-34,0-2,no,2,right,right_low,no
244,40-49,premeno,30-34,0-2,no,1,left,left_low,no
245,60-69,ge40,15-19,0-2,no,2,left,left_low,no
246,40-49,premeno,10-14,0-2,no,2,left,left_low,no
247,60-69,ge40,20-24,0-2,no,1,left,left_low,no
248,50-59,ge40,10-14,0-2,no,1,left,left_up,no
249,50-59,premeno,25-29,0-2,no,1,left,left_low,no
250,50-59,ge40,30-34,9-11,yes,3,left,right_low,yes
251,50-59,ge40,10-14,0-2,no,2,left,left_low,no
252,40-49,premeno,30-34,0-2,no,1,left,right_up,no
253,70-79,ge40,0-4,0-2,no,1,left,right_low,no
254,40-49,premeno,25-29,0-2,no,3,right,left_up,yes
255,50-59,premeno,25-29,0-2,no,3,right,left_low,yes
256,50-59,ge40,40-44,0-2,no,2,left,left_low,no
257,60-69,ge40,25-29,0-2,no,3,left,right_low,yes
258,40-49,premeno,30-34,3-5,yes,2,right,left_low,no
259,50-59,ge40,20-24,0-2,no,2,left,left_up,no
260,70-79,ge40,20-24,0-2,no,3,left,left_up,no
261,30-39,premeno,25-29,0-2,no,1,left,central,no
262,60-69,ge40,30-34,0-2,no,2,left,left_low,no
263,40-49,premeno,20-24,3-5,yes,2,right,right_up,yes
264,50-59,ge40,30-34,9-11,,3,left,left_low,yes
265,50-59,ge40,0-4,0-2,no,2,left,central,no
266,40-49,premeno,20-24,0-2,no,3,right,left_low,yes
267,30-39,premeno,35-39,0-2,no,3,left,left_low,no
268,60-69,ge40,30-34,0-2,no,1,left,left_up,no
269,60-69,ge40,20-24,0-2,no,1,left,left_low,no
270,50-59,ge40,25-29,6-8,no,3,left,left_low,yes
271,50-59,premeno,35-39,15-17,yes,3,right,right_up,no
272,30-39,premeno,20-24,3-5,yes,2,right,left_up,yes
273,40-49,premeno,20-24,6-8,no,2,right,left_low,yes
274,50-59,ge40,35-39,0-2,no,3,left,left_low,no
275,50-59,premeno,35-39,0-2,no,2,right,left_up,no
276,40-49,premeno,25-29,0-2,no,2,left,left_up,yes
277,40-49,premeno,35-39,0-2,no,2,right,right_up,no
278,50-59,premeno,30-34,3-5,yes,2,left,left_low,yes
279,40-49,premeno,20-24,0-2,no,2,right,right_up,no
280,60-69,ge40,15-19,0-2,no,3,right,left_up,yes
281,50-59,ge40,30-34,6-8,yes,2,left,left_low,no
282,50-59,premeno,25-29,3-5,yes,2,left,left_low,yes
283,30-39,premeno,30-34,6-8,yes,2,right,right_up,no
284,50-59,premeno,15-19,0-2,no,2,right,left_low,no
285,50-59,ge40,40-44,0-2,no,3,left,right_up,no
