,V1,V2,V3,V4,V5,V6,V7,V8,V9,V10,V11,V12
0,32.0,1.0,1.0,6.0,1.0,2.0,7.0,2.0,20.0,2.0,1.0,1.0
1,34.0,1.0,4.0,9.0,1.0,1.0,29.0,2.0,2.0,2.0,1.0,1.0
2,35.0,1.0,4.0,1.0,1.0,2.0,9.0,3.0,1.0,1.0,1.0,4.0
3,36.0,1.0,4.0,8.0,1.0,2.0,5.0,3.0,16.0,3.0,1.0,3.0
4,38.0,0.0,4.0,7.0,1.0,2.0,35.0,2.0,10.0,2.0,1.0,1.0
5,38.0,0.0,4.0,8.0,2.0,2.0,31.0,2.0,4.0,3.0,1.0,2.0
6,38.0,1.0,3.0,4.0,1.0,2.0,39.0,2.0,28.0,2.0,1.0,1.0
7,38.0,1.0,3.0,9.0,2.0,2.0,8.0,3.0,4.0,3.0,1.0,4.0
8,38.0,1.0,4.0,14.0,1.0,2.0,27.0,2.0,4.0,1.0,1.0,2.0
9,38.0,1.0,4.0,16.0,1.0,2.0,66.0,3.0,1.0,1.0,1.0,2.0
10,40.0,1.0,4.0,6.0,1.0,3.0,22.0,2.0,4.0,2.0,1.0,1.0
11,41.0,1.0,4.0,11.0,1.0,2.0,38.0,2.0,32.0,2.0,1.0,1.0
12,42.0,1.0,4.0,7.0,1.0,2.0,8.0,3.0,23.0,4.0,1.0,1.0
13,42.0,1.0,4.0,15.0,2.0,2.0,62.0,3.0,4.0,3.0,1.0,1.0
14,43.0,1.0,4.0,4.0,1.0,2.0,68.0,2.0,31.0,4.0,1.0,1.0
15,43.0,1.0,4.0,9.0,2.0,2.0,24.0,3.0,35.0,3.0,1.0,4.0
16,43.0,1.0,4.0,12.0,2.0,3.0,19.0,3.0,18.0,2.0,1.0,4.0
17,45.0,1.0,3.0,8.0,1.0,2.0,17.0,2.0,26.0,2.0,1.0,1.0
18,46.0,1.0,4.0,4.0,1.0,3.0,11.0,2.0,8.0,3.0,1.0,1.0
19,46.0,1.0,4.0,9.0,2.0,2.0,65.0,3.0,31.0,3.0,1.0,4.0
20,47.0,1.0,3.0,8.0,1.0,2.0,66.0,3.0,4.0,1.0,1.0,2.0
21,47.0,1.0,3.0,17.0,2.0,2.0,45.0,3.0,16.0,3.0,1.0,2.0
22,47.0,1.0,4.0,8.0,1.0,3.0,26.0,2.0,3.0,2.0,1.0,1.0
23,47.0,1.0,4.0,18.0,2.0,2.0,3.0,3.0,4.0,3.0,1.0,4.0
24,48.0,1.0,4.0,9.0,1.0,2.0,8.0,2.0,4.0,3.0,1.0,3.0
25,50.0,0.0,4.0,18.0,1.0,2.0,64.0,2.0,4.0,1.0,1.0,2.0
26,50.0,1.0,4.0,9.0,2.0,2.0,66.0,3.0,18.0,3.0,1.0,3.0
27,50.0,1.0,4.0,10.0,2.0,3.0,31.0,3.0,4.0,2.0,1.0,3.0
28,50.0,1.0,4.0,15.0,1.0,2.0,18.0,3.0,20.0,3.0,1.0,1.0
29,51.0,0.0,4.0,10.0,1.0,2.0,7.0,3.0,31.0,2.0,1.0,1.0
30,51.0,1.0,4.0,8.0,1.0,2.0,55.0,2.0,4.0,3.0,1.0,1.0
31,51.0,1.0,4.0,10.0,3.0,2.0,28.0,2.0,4.0,3.0,1.0,2.0
32,51.0,1.0,4.0,13.0,1.0,2.0,36.0,2.0,19.0,2.0,1.0,1.0
33,51.0,1.0,4.0,13.0,1.0,3.0,33.0,2.0,4.0,1.0,1.0,4.0
34,51.0,1.0,4.0,12.0,2.0,2.0,42.0,2.0,4.0,3.0,1.0,2.0
35,51.0,1.0,4.0,6.0,1.0,2.0,6.0,2.0,5.0,3.0,1.0,1.0
36,52.0,1.0,4.0,13.0,1.0,2.0,66.0,2.0,4.0,3.0,1.0,4.0
37,52.0,1.0,4.0,14.0,1.0,2.0,8.0,3.0,35.0,3.0,1.0,4.0
38,52.0,1.0,4.0,19.0,1.0,2.0,68.0,3.0,16.0,2.0,1.0,4.0
39,52.0,1.0,4.0,6.0,1.0,2.0,50.0,3.0,1.0,1.0,1.0,1.0
40,53.0,1.0,2.0,10.0,2.0,2.0,59.0,2.0,4.0,3.0,1.0,2.0
41,53.0,1.0,2.0,13.0,1.0,3.0,66.0,2.0,20.0,4.0,1.0,1.0
42,53.0,1.0,3.0,7.0,2.0,2.0,23.0,2.0,4.0,3.0,1.0,4.0
43,53.0,1.0,3.0,18.0,1.0,4.0,68.0,3.0,4.0,1.0,1.0,4.0
44,53.0,1.0,4.0,10.0,1.0,2.0,66.0,2.0,4.0,3.0,1.0,4.0
45,53.0,1.0,4.0,11.0,1.0,2.0,66.0,2.0,31.0,2.0,1.0,1.0
46,53.0,1.0,4.0,13.0,2.0,4.0,14.0,3.0,16.0,3.0,1.0,4.0
47,53.0,1.0,4.0,5.0,1.0,2.0,20.0,3.0,35.0,4.0,1.0,1.0
48,54.0,1.0,4.0,10.0,2.0,2.0,30.0,2.0,4.0,3.0,1.0,4.0
49,54.0,1.0,4.0,13.0,1.0,2.0,64.0,3.0,11.0,3.0,1.0,4.0
50,54.0,1.0,4.0,21.0,1.0,2.0,27.0,2.0,31.0,3.0,1.0,4.0
51,55.0,1.0,2.0,12.0,1.0,3.0,27.0,2.0,2.0,2.0,1.0,1.0
52,55.0,1.0,4.0,9.0,1.0,2.0,30.0,2.0,27.0,3.0,1.0,1.0
53,55.0,1.0,4.0,10.0,2.0,3.0,55.0,2.0,13.0,2.0,1.0,4.0
54,55.0,1.0,4.0,12.0,2.0,2.0,51.0,2.0,4.0,3.0,1.0,4.0
55,56.0,1.0,3.0,10.0,2.0,2.0,60.0,2.0,4.0,3.0,1.0,4.0
56,56.0,1.0,3.0,11.0,1.0,2.0,61.0,2.0,36.0,3.0,1.0,4.0
57,56.0,1.0,3.0,17.0,2.0,3.0,62.0,2.0,4.0,3.0,1.0,2.0
58,56.0,1.0,4.0,9.0,1.0,3.0,50.0,2.0,25.0,2.0,1.0,1.0
59,56.0,1.0,4.0,10.0,2.0,3.0,4.0,3.0,25.0,4.0,1.0,4.0
60,56.0,1.0,4.0,10.0,2.0,3.0,25.0,2.0,4.0,3.0,1.0,1.0
61,56.0,1.0,4.0,11.0,3.0,2.0,16.0,3.0,16.0,3.0,1.0,4.0
62,56.0,1.0,4.0,12.0,1.0,2.0,67.0,3.0,34.0,2.0,1.0,1.0
63,57.0,1.0,3.0,7.0,1.0,2.0,25.0,2.0,13.0,3.0,1.0,1.0
64,57.0,1.0,4.0,8.0,1.0,3.0,10.0,3.0,12.0,2.0,2.0,1.0
65,57.0,1.0,4.0,12.0,2.0,2.0,66.0,3.0,35.0,3.0,1.0,3.0
66,57.0,1.0,4.0,12.0,1.0,2.0,4.0,3.0,4.0,1.0,1.0,3.0
67,57.0,1.0,4.0,18.0,1.0,2.0,61.0,3.0,35.0,3.0,1.0,4.0
68,57.0,1.0,4.0,6.0,1.0,2.0,41.0,2.0,20.0,4.0,1.0,1.0
69,58.0,1.0,4.0,9.0,1.0,2.0,17.0,2.0,18.0,2.0,1.0,1.0
70,58.0,1.0,4.0,13.0,2.0,3.0,4.0,3.0,16.0,3.0,1.0,3.0
71,58.0,1.0,4.0,20.0,1.0,3.0,40.0,3.0,4.0,1.0,1.0,2.0
72,59.0,1.0,3.0,11.0,1.0,2.0,37.0,2.0,9.0,3.0,1.0,1.0
73,59.0,1.0,4.0,8.0,1.0,2.0,58.0,2.0,4.0,1.0,1.0,3.0
74,59.0,1.0,4.0,10.0,2.0,2.0,23.0,2.0,4.0,3.0,1.0,2.0
75,59.0,1.0,4.0,11.0,1.0,2.0,56.0,3.0,24.0,2.0,1.0,1.0
76,59.0,1.0,4.0,14.0,2.0,2.0,23.0,3.0,16.0,3.0,1.0,4.0
77,60.0,1.0,3.0,9.0,1.0,2.0,21.0,2.0,6.0,2.0,1.0,1.0
78,60.0,1.0,4.0,11.0,1.0,2.0,64.0,2.0,27.0,2.0,3.0,1.0
79,60.0,1.0,4.0,13.0,1.0,3.0,9.0,3.0,29.0,4.0,2.0,1.0
80,60.0,1.0,4.0,14.0,2.0,2.0,43.0,3.0,18.0,2.0,1.0,4.0
81,60.0,1.0,4.0,18.0,2.0,3.0,62.0,3.0,18.0,3.0,1.0,4.0
82,60.0,1.0,4.0,18.0,1.0,2.0,26.0,2.0,15.0,3.0,1.0,1.0
83,61.0,1.0,3.0,3.0,1.0,3.0,46.0,2.0,4.0,1.0,1.0,2.0
84,61.0,1.0,4.0,7.0,1.0,2.0,64.0,3.0,31.0,2.0,1.0,1.0
85,61.0,1.0,4.0,8.0,1.0,2.0,65.0,2.0,12.0,3.0,1.0,1.0
86,61.0,1.0,4.0,11.0,2.0,2.0,40.0,3.0,4.0,4.0,1.0,4.0
87,61.0,1.0,4.0,13.0,2.0,4.0,23.0,2.0,4.0,3.0,1.0,4.0
88,61.0,1.0,4.0,13.0,1.0,2.0,48.0,2.0,7.0,3.0,1.0,1.0
89,61.0,1.0,4.0,16.0,2.0,2.0,40.0,3.0,4.0,3.0,1.0,4.0
90,61.0,1.0,4.0,16.0,2.0,2.0,34.0,3.0,35.0,3.0,1.0,4.0
91,61.0,1.0,4.0,18.0,3.0,3.0,24.0,2.0,16.0,3.0,1.0,4.0
92,62.0,0.0,1.0,12.0,1.0,2.0,21.0,2.0,4.0,1.0,1.0,2.0
93,62.0,0.0,4.0,10.0,1.0,3.0,2.0,3.0,33.0,4.0,1.0,1.0
94,62.0,1.0,1.0,10.0,1.0,4.0,13.0,2.0,21.0,3.0,3.0,1.0
95,62.0,1.0,3.0,18.0,2.0,2.0,47.0,3.0,4.0,3.0,1.0,2.0
96,62.0,1.0,4.0,9.0,1.0,2.0,8.0,3.0,7.0,4.0,1.0,1.0
97,62.0,1.0,4.0,9.0,1.0,2.0,47.0,3.0,17.0,3.0,1.0,2.0
98,62.0,1.0,4.0,16.0,1.0,3.0,49.0,2.0,35.0,3.0,1.0,4.0
99,63.0,1.0,4.0,4.0,1.0,2.0,63.0,2.0,22.0,3.0,1.0,1.0
100,63.0,1.0,4.0,12.0,1.0,4.0,26.0,2.0,35.0,2.0,1.0,1.0
101,63.0,1.0,4.0,16.0,2.0,2.0,53.0,3.0,35.0,3.0,1.0,1.0
102,63.0,1.0,4.0,16.0,1.0,3.0,29.0,2.0,14.0,2.0,1.0,1.0
103,63.0,1.0,4.0,2.0,2.0,2.0,61.0,3.0,4.0,2.0,1.0,4.0
104,64.0,0.0,4.0,3.0,2.0,2.0,19.0,3.0,16.0,3.0,1.0,2.0
105,64.0,0.0,4.0,6.0,1.0,2.0,24.0,2.0,29.0,4.0,1.0,1.0
106,64.0,1.0,4.0,8.0,1.0,2.0,12.0,3.0,30.0,4.0,1.0,1.0
107,65.0,1.0,4.0,9.0,2.0,2.0,57.0,3.0,4.0,3.0,1.0,4.0
108,65.0,1.0,4.0,15.0,1.0,3.0,44.0,2.0,1.0,1.0,1.0,3.0
109,65.0,1.0,4.0,17.0,1.0,2.0,29.0,2.0,16.0,2.0,1.0,1.0
110,65.0,1.0,4.0,18.0,3.0,3.0,68.0,2.0,1.0,1.0,1.0,4.0
111,66.0,0.0,4.0,17.0,1.0,2.0,54.0,2.0,4.0,1.0,1.0,4.0
112,66.0,1.0,4.0,16.0,2.0,2.0,52.0,3.0,35.0,3.0,1.0,4.0
113,67.0,1.0,1.0,15.0,2.0,4.0,5.0,2.0,4.0,3.0,1.0,2.0
114,68.0,1.0,4.0,14.0,2.0,3.0,66.0,3.0,4.0,2.0,1.0,4.0
115,68.0,1.0,4.0,15.0,1.0,2.0,15.0,2.0,34.0,2.0,1.0,1.0
116,69.0,1.0,4.0,14.0,2.0,2.0,9.0,2.0,4.0,3.0,1.0,3.0
117,69.0,1.0,4.0,1.0,2.0,3.0,1.0,1.0,1.0,1.0,1.0,4.0
118,70.0,1.0,4.0,9.0,2.0,3.0,55.0,3.0,4.0,3.0,1.0,4.0
119,70.0,1.0,4.0,12.0,3.0,2.0,32.0,3.0,35.0,3.0,1.0,4.0
120,72.0,1.0,3.0,18.0,1.0,4.0,12.0,2.0,32.0,3.0,3.0,1.0
121,73.0,0.0,3.0,18.0,2.0,3.0,67.0,2.0,4.0,2.0,1.0,2.0
122,74.0,1.0,2.0,15.0,1.0,3.0,2.0,2.0,30.0,2.0,1.0,1.0
